﻿CustomerID,ClientID,UserName,FirstName,LastName,EmailAddress,Phone,DeleteStatus,CreatedOn,CreatedBy,LastModifiedOn,LastModifiedBy
,105,LUIS.COLLINS,Luis,Collins,Luis.Collins@arraytest.com,,,,,,
,105,LUKE.COLLINS,Luke,Collins,Luke.Collins@arraytest.com,,,,,,
,105,MACKENZIE.COLLINS,Mackenzie,Collins,Mackenzie.Collins@arraytest.com,,,,,,
,105,MADELINE.COLLINS,Madeline,Collins,Madeline.Collins@arraytest.com,,,,,,
,105,MARCUS.COLLINS,Marcus,Collins,Marcus.Collins@arraytest.com,,,,,,
,105,MARIA.COLLINS,Maria,Collins,Maria.Collins@arraytest.com,,,,,,
,105,MARY.COLLINS,Mary,Collins,Mary.Collins@arraytest.com,,,,,,
,105,MASON.COLLINS,Mason,Collins,Mason.Collins@arraytest.com,,,,,,
,105,MIGUEL.COLLINS,Miguel,Collins,Miguel.Collins@arraytest.com,,,,,,
,105,MORGAN.COLLINS,Morgan,Collins,Morgan.Collins@arraytest.com,,,,,,
,105,NATALIE.COLLINS,Natalie,Collins,Natalie.Collins@arraytest.com,,,,,,
,105,NATHAN.COLLINS,Nathan,Collins,Nathan.Collins@arraytest.com,,,,,,
,105,NOAH.COLLINS,Noah,Collins,Noah.Collins@arraytest.com,,,,,,
,105,REBECCA.COLLINS,Rebecca,Collins,Rebecca.Collins@arraytest.com,,,,,,
,105,RICHARD.COLLINS,Richard,Collins,Richard.Collins@arraytest.com,,,,,,
,105,ROBERT.COLLINS,Robert,Collins,Robert.Collins@arraytest.com,,,,,,
,105,SAMUEL.COLLINS,Samuel,Collins,Samuel.Collins@arraytest.com,,,,,,
,105,SARA.COLLINS,Sara,Collins,Sara.Collins@arraytest.com,,,,,,
,105,SAVANNAH.COLLINS,Savannah,Collins,Savannah.Collins@arraytest.com,,,,,,
,105,SEAN.COLLINS,Sean,Collins,Sean.Collins@arraytest.com,,,,,,
,105,SETH.COLLINS,Seth,Collins,Seth.Collins@arraytest.com,,,,,,
,105,SIERRA.COLLINS,Sierra,Collins,Sierra.Collins@arraytest.com,,,,,,
,105,STEPHANIE.COLLINS,Stephanie,Collins,Stephanie.Collins@arraytest.com,,,,,,
,105,SYDNEY.COLLINS,Sydney,Collins,Sydney.Collins@arraytest.com,,,,,,
,105,TAKIKO.COLLINS,Takiko,Collins,Takiko.Collins@arraytest.com,,,,,,
,105,THOMAS.COLLINS,Thomas,Collins,Thomas.Collins@arraytest.com,,,,,,
,105,TIMOTHY.COLLINS,Timothy,Collins,Timothy.Collins@arraytest.com,,,,,,
,105,WYATT.COLLINS,Wyatt,Collins,Wyatt.Collins@arraytest.com,,,,,,
,105,XAVIER.COLLINS,Xavier,Collins,Xavier.Collins@arraytest.com,,,,,,
,105,JOHN.COLON,John,Colon,John.Colon@arraytest.com,,,,,,
,105,SCOTT.COLVIN,Scott,Colvin,Scott.Colvin@arraytest.com,,,,,,
,105,AARON.CON,Aaron,Con,Aaron.Con@arraytest.com,,,,,,
,105,PETER.CONNELLY,Peter,Connelly,Peter.Connelly@arraytest.com,,,,,,
,105,WILLIAM.CONNER,William,Conner,William.Conner@arraytest.com,,,,,,
,105,STEPHANIE.CONROY,Stephanie,Conroy,Stephanie.Conroy@arraytest.com,,,,,,
,105,AMY.CONSENTINO,Amy,Consentino,Amy.Consentino@arraytest.com,,,,,,
,105,DOROTHY.CONTRERAS,Dorothy,Contreras,Dorothy.Contreras@arraytest.com,,,,,,
,105,LINDA.CONTRERAS,Linda,Contreras,Linda.Contreras@arraytest.com,,,,,,
,105,ABIGAIL.COOK,Abigail,Cook,Abigail.Cook@arraytest.com,,,,,,
,105,ADRIAN.COOK,Adrian,Cook,Adrian.Cook@arraytest.com,,,,,,
,105,ALEX.COOK,Alex,Cook,Alex.Cook@arraytest.com,,,,,,
,105,ALEXA.COOK,Alexa,Cook,Alexa.Cook@arraytest.com,,,,,,
,105,ALEXANDRA.COOK,Alexandra,Cook,Alexandra.Cook@arraytest.com,,,,,,
,105,ALEXANDRIA.COOK,Alexandria,Cook,Alexandria.Cook@arraytest.com,,,,,,
,105,ALYSSA.COOK,Alyssa,Cook,Alyssa.Cook@arraytest.com,,,,,,
,105,AMANDA.COOK,Amanda,Cook,Amanda.Cook@arraytest.com,,,,,,
,105,ANDREA.COOK,Andrea,Cook,Andrea.Cook@arraytest.com,,,,,,
,105,ANGEL.COOK,Angel,Cook,Angel.Cook@arraytest.com,,,,,,
,105,ANGELA.COOK,Angela,Cook,Angela.Cook@arraytest.com,,,,,,
,105,ANNA.COOK,Anna,Cook,Anna.Cook@arraytest.com,,,,,,
,105,ARIANA.COOK,Ariana,Cook,Ariana.Cook@arraytest.com,,,,,,
,105,ARIANNA.COOK,Arianna,Cook,Arianna.Cook@arraytest.com,,,,,,
,105,BAILEY.COOK,Bailey,Cook,Bailey.Cook@arraytest.com,,,,,,
,105,BRIAN.COOK,Brian,Cook,Brian.Cook@arraytest.com,,,,,,
,105,BRIANNA.COOK,Brianna,Cook,Brianna.Cook@arraytest.com,,,,,,
,105,BROOKE.COOK,Brooke,Cook,Brooke.Cook@arraytest.com,,,,,,
,105,BRYCE.COOK,Bryce,Cook,Bryce.Cook@arraytest.com,,,,,,
,105,CARLOS.COOK,Carlos,Cook,Carlos.Cook@arraytest.com,,,,,,
,105,CATHAN.COOK,Cathan,Cook,Cathan.Cook@arraytest.com,,,,,,
,105,CHARLES.COOK,Charles,Cook,Charles.Cook@arraytest.com,,,,,,
,105,CHASE.COOK,Chase,Cook,Chase.Cook@arraytest.com,,,,,,
,105,CHLOE.COOK,Chloe,Cook,Chloe.Cook@arraytest.com,,,,,,
,105,CHRISTINA.COOK,Christina,Cook,Christina.Cook@arraytest.com,,,,,,
,105,CODY.COOK,Cody,Cook,Cody.Cook@arraytest.com,,,,,,
,105,SETH.PATTERSON,Seth,Patterson,Seth.Patterson@arraytest.com,,,,,,
,105,SPENCER.PATTERSON,Spencer,Patterson,Spencer.Patterson@arraytest.com,,,,,,
,105,SYDNEY.PATTERSON,Sydney,Patterson,Sydney.Patterson@arraytest.com,,,,,,
,105,TAYLOR.PATTERSON,Taylor,Patterson,Taylor.Patterson@arraytest.com,,,,,,
,105,THOMAS.PATTERSON,Thomas,Patterson,Thomas.Patterson@arraytest.com,,,,,,
,105,TREVOR.PATTERSON,Trevor,Patterson,Trevor.Patterson@arraytest.com,,,,,,
,105,TRISTAN.PATTERSON,Tristan,Patterson,Tristan.Patterson@arraytest.com,,,,,,
,105,VANESSA.PATTERSON,Vanessa,Patterson,Vanessa.Patterson@arraytest.com,,,,,,
,105,VICTORIA.PATTERSON,Victoria,Patterson,Victoria.Patterson@arraytest.com,,,,,,
,105,ZACHARY.PATTERSON,Zachary,Patterson,Zachary.Patterson@arraytest.com,,,,,,
,105,SIMON.PEARSON,Simon,Pearson,Simon.Pearson@arraytest.com,,,,,,
,105,TRISH.PEDERSON,Trish,Pederson,Trish.Pederson@arraytest.com,,,,,,
,105,FRANK.PELLOW,Frank,Pellow,Frank.Pellow@arraytest.com,,,,,,
,105,LORI.PENOR,Lori,Penor,Lori.Penor@arraytest.com,,,,,,
,105,LIONEL.PENUCHOT,Lionel,Penuchot,Lionel.Penuchot@arraytest.com,,,,,,
,105,ELIZABETH.PEOPLES,Elizabeth,Peoples,Elizabeth.Peoples@arraytest.com,,,,,,
,105,JOHN.PEOPLES,John,Peoples,John.Peoples@arraytest.com,,,,,,
,105,JONATHAN.PERERA,Jonathan,Perera,Jonathan.Perera@arraytest.com,,,,,,
,105,AARON.PEREZ,Aaron,Perez,Aaron.Perez@arraytest.com,,,,,,
,105,ABBY.PEREZ,Abby,Perez,Abby.Perez@arraytest.com,,,,,,
,105,ADAM.PEREZ,Adam,Perez,Adam.Perez@arraytest.com,,,,,,
,105,ADRIANA.PEREZ,Adriana,Perez,Adriana.Perez@arraytest.com,,,,,,
,105,ALEX.PEREZ,Alex,Perez,Alex.Perez@arraytest.com,,,,,,
,105,ALEXANDRA.PEREZ,Alexandra,Perez,Alexandra.Perez@arraytest.com,,,,,,
,105,ALLEN.PEREZ,Allen,Perez,Allen.Perez@arraytest.com,,,,,,
,105,ALLISON.PEREZ,Allison,Perez,Allison.Perez@arraytest.com,,,,,,
,105,AMANDA.PEREZ,Amanda,Perez,Amanda.Perez@arraytest.com,,,,,,
,105,AMBER.PEREZ,Amber,Perez,Amber.Perez@arraytest.com,,,,,,
,105,ANDRE.PEREZ,Andre,Perez,Andre.Perez@arraytest.com,,,,,,
,105,ANDREA.PEREZ,Andrea,Perez,Andrea.Perez@arraytest.com,,,,,,
,105,ANGEL.PEREZ,Angel,Perez,Angel.Perez@arraytest.com,,,,,,
,105,ARTHUR.PEREZ,Arthur,Perez,Arthur.Perez@arraytest.com,,,,,,
,105,BARRY.PEREZ,Barry,Perez,Barry.Perez@arraytest.com,,,,,,
,105,BLAKE.PEREZ,Blake,Perez,Blake.Perez@arraytest.com,,,,,,
,105,BOBBY.PEREZ,Bobby,Perez,Bobby.Perez@arraytest.com,,,,,,
,105,BRANDY.PEREZ,Brandy,Perez,Brandy.Perez@arraytest.com,,,,,,
,105,BRENDA.PEREZ,Brenda,Perez,Brenda.Perez@arraytest.com,,,,,,
,105,BRETT.PEREZ,Brett,Perez,Brett.Perez@arraytest.com,,,,,,
,105,BRUCE.PEREZ,Bruce,Perez,Bruce.Perez@arraytest.com,,,,,,
,105,BRYANT.PEREZ,Bryant,Perez,Bryant.Perez@arraytest.com,,,,,,
,105,CALEB.PEREZ,Caleb,Perez,Caleb.Perez@arraytest.com,,,,,,
,105,CANDACE.PEREZ,Candace,Perez,Candace.Perez@arraytest.com,,,,,,
,105,CARLA.PEREZ,Carla,Perez,Carla.Perez@arraytest.com,,,,,,
,105,CARLOS.PEREZ,Carlos,Perez,Carlos.Perez@arraytest.com,,,,,,
,105,CARMEN.PEREZ,Carmen,Perez,Carmen.Perez@arraytest.com,,,,,,
,105,CAROLYN.PEREZ,Carolyn,Perez,Carolyn.Perez@arraytest.com,,,,,,
,105,CASSANDRA.PEREZ,Cassandra,Perez,Cassandra.Perez@arraytest.com,,,,,,
,105,CESAR.PEREZ,Cesar,Perez,Cesar.Perez@arraytest.com,,,,,,
,105,CHARLES.PEREZ,Charles,Perez,Charles.Perez@arraytest.com,,,,,,
,105,CHELSEA.PEREZ,Chelsea,Perez,Chelsea.Perez@arraytest.com,,,,,,
,105,CHLOE.PEREZ,Chloe,Perez,Chloe.Perez@arraytest.com,,,,,,
,105,CLIFFORD.PEREZ,Clifford,Perez,Clifford.Perez@arraytest.com,,,,,,
,105,CONNOR.PEREZ,Connor,Perez,Connor.Perez@arraytest.com,,,,,,
,105,CORY.PEREZ,Cory,Perez,Cory.Perez@arraytest.com,,,,,,
,105,CYNTHIA.PEREZ,Cynthia,Perez,Cynthia.Perez@arraytest.com,,,,,,
,105,DALTON.PEREZ,Dalton,Perez,Dalton.Perez@arraytest.com,,,,,,
,105,DEANNA.PEREZ,Deanna,Perez,Deanna.Perez@arraytest.com,,,,,,
,105,DENISE.PEREZ,Denise,Perez,Denise.Perez@arraytest.com,,,,,,
,105,DEVIN.PEREZ,Devin,Perez,Devin.Perez@arraytest.com,,,,,,
,105,DOMINIC.PEREZ,Dominic,Perez,Dominic.Perez@arraytest.com,,,,,,
,105,DOMINIQUE.PEREZ,Dominique,Perez,Dominique.Perez@arraytest.com,,,,,,
,105,DONALD.PEREZ,Donald,Perez,Donald.Perez@arraytest.com,,,,,,
,105,DOUGLAS.PEREZ,Douglas,Perez,Douglas.Perez@arraytest.com,,,,,,
,105,EBONY.PEREZ,Ebony,Perez,Ebony.Perez@arraytest.com,,,,,,
,105,MELANIE.SIMMONS,Melanie,Simmons,Melanie.Simmons@arraytest.com,,,,,,
,105,MELISSA.SIMMONS,Melissa,Simmons,Melissa.Simmons@arraytest.com,,,,,,
,105,MIGUEL.SIMMONS,Miguel,Simmons,Miguel.Simmons@arraytest.com,,,,,,
,105,MIRANDA.SIMMONS,Miranda,Simmons,Miranda.Simmons@arraytest.com,,,,,,
,105,MYA.SIMMONS,Mya,Simmons,Mya.Simmons@arraytest.com,,,,,,
,105,NATALIE.SIMMONS,Natalie,Simmons,Natalie.Simmons@arraytest.com,,,,,,
,105,NATHAN.SIMMONS,Nathan,Simmons,Nathan.Simmons@arraytest.com,,,,,,
,105,NICOLE.SIMMONS,Nicole,Simmons,Nicole.Simmons@arraytest.com,,,,,,
,105,NOAH.SIMMONS,Noah,Simmons,Noah.Simmons@arraytest.com,,,,,,
,105,OLIVIA.SIMMONS,Olivia,Simmons,Olivia.Simmons@arraytest.com,,,,,,
,105,OSCAR.SIMMONS,Oscar,Simmons,Oscar.Simmons@arraytest.com,,,,,,
,105,PAIGE.SIMMONS,Paige,Simmons,Paige.Simmons@arraytest.com,,,,,,
,105,RACHEL.SIMMONS,Rachel,Simmons,Rachel.Simmons@arraytest.com,,,,,,
,105,RICHARD.SIMMONS,Richard,Simmons,Richard.Simmons@arraytest.com,,,,,,
,105,RILEY.SIMMONS,Riley,Simmons,Riley.Simmons@arraytest.com,,,,,,
,105,RYAN.SIMMONS,Ryan,Simmons,Ryan.Simmons@arraytest.com,,,,,,
,105,SAMANTHA.SIMMONS,Samantha,Simmons,Samantha.Simmons@arraytest.com,,,,,,
,105,SAMUEL.SIMMONS,Samuel,Simmons,Samuel.Simmons@arraytest.com,,,,,,
,105,SARAH.SIMMONS,Sarah,Simmons,Sarah.Simmons@arraytest.com,,,,,,
,105,SETH.SIMMONS,Seth,Simmons,Seth.Simmons@arraytest.com,,,,,,
,105,SPENCER.SIMMONS,Spencer,Simmons,Spencer.Simmons@arraytest.com,,,,,,
,105,STEPHANIE.SIMMONS,Stephanie,Simmons,Stephanie.Simmons@arraytest.com,,,,,,
,105,SYDNEY.SIMMONS,Sydney,Simmons,Sydney.Simmons@arraytest.com,,,,,,
,105,THOMAS.SIMMONS,Thomas,Simmons,Thomas.Simmons@arraytest.com,,,,,,
,105,TREVOR.SIMMONS,Trevor,Simmons,Trevor.Simmons@arraytest.com,,,,,,
,105,VANESSA.SIMMONS,Vanessa,Simmons,Vanessa.Simmons@arraytest.com,,,,,,
,105,VICTORIA.SIMMONS,Victoria,Simmons,Victoria.Simmons@arraytest.com,,,,,,
,105,WYATT.SIMMONS,Wyatt,Simmons,Wyatt.Simmons@arraytest.com,,,,,,
,105,XAVIER.SIMMONS,Xavier,Simmons,Xavier.Simmons@arraytest.com,,,,,,
,105,ZACHARY.SIMMONS,Zachary,Simmons,Zachary.Simmons@arraytest.com,,,,,,
,105,BRITTA.SIMON,Britta,Simon,Britta.Simon@arraytest.com,,,,,,
,105,DAVID.SIMPSON,David,Simpson,David.Simpson@arraytest.com,,,,,,
,105,LACEY.SIMPSON,Lacey,Simpson,Lacey.Simpson@arraytest.com,,,,,,
,105,LINDSAY.SIMPSON,Lindsay,Simpson,Lindsay.Simpson@arraytest.com,,,,,,
,105,MARTY.SIMPSON,Marty,Simpson,Marty.Simpson@arraytest.com,,,,,,
,105,MINDY.SIMPSON,Mindy,Simpson,Mindy.Simpson@arraytest.com,,,,,,
,105,SHARON.SIMPSON,Sharon,Simpson,Sharon.Simpson@arraytest.com,,,,,,
,105,SHAWNA.SIMPSON,Shawna,Simpson,Shawna.Simpson@arraytest.com,,,,,,
,105,TARA.SIMPSON,Tara,Simpson,Tara.Simpson@arraytest.com,,,,,,
,105,TRACY.SIMPSON,Tracy,Simpson,Tracy.Simpson@arraytest.com,,,,,,
,105,YOLANDA.SIMPSON,Yolanda,Simpson,Yolanda.Simpson@arraytest.com,,,,,,
,105,ANNE.SIMS,Anne,Sims,Anne.Sims@arraytest.com,,,,,,
,105,MIRCEA.SINGER,Mircea,Singer,Mircea.Singer@arraytest.com,,,,,,
,105,PAUL.SINGH,Paul,Singh,Paul.Singh@arraytest.com,,,,,,
,105,BONNIE.SKELLY,Bonnie,Skelly,Bonnie.Skelly@arraytest.com,,,,,,
,105,ANDERS.SKJØNAA,Anders,Skjønaa,Anders.Skjønaa@arraytest.com,,,,,,
,105,DIANNE.SLATTENGREN,Dianne,Slattengren,Dianne.Slattengren@arraytest.com,,,,,,
,105,LANNA.SLAVEN,Lanna,Slaven,Lanna.Slaven@arraytest.com,,,,,,
,105,CATHY.SLOAN,Cathy,Sloan,Cathy.Sloan@arraytest.com,,,,,,
,105,ABIGAIL.SMITH,Abigail,Smith,Abigail.Smith@arraytest.com,,,,,,
,105,ADRIANA.SMITH,Adriana,Smith,Adriana.Smith@arraytest.com,,,,,,
,105,ALEXANDER.SMITH,Alexander,Smith,Alexander.Smith@arraytest.com,,,,,,
,105,ALEXANDRA.SMITH,Alexandra,Smith,Alexandra.Smith@arraytest.com,,,,,,
,105,ALEXIS.SMITH,Alexis,Smith,Alexis.Smith@arraytest.com,,,,,,
,105,ALLEN.SMITH,Allen,Smith,Allen.Smith@arraytest.com,,,,,,
,105,ALYSSA.SMITH,Alyssa,Smith,Alyssa.Smith@arraytest.com,,,,,,
,105,ANDRE.SMITH,Andre,Smith,Andre.Smith@arraytest.com,,,,,,
,105,ANDREW.SMITH,Andrew,Smith,Andrew.Smith@arraytest.com,,,,,,
,105,ARTHUR.SMITH,Arthur,Smith,Arthur.Smith@arraytest.com,,,,,,
,105,ASHLEY.SMITH,Ashley,Smith,Ashley.Smith@arraytest.com,,,,,,
,105,AUSTIN.SMITH,Austin,Smith,Austin.Smith@arraytest.com,,,,,,
,105,BEN.SMITH,Ben,Smith,Ben.Smith@arraytest.com,,,,,,
,105,VICTOR.MUÑOZ,Victor,Muñoz,Victor.Muñoz@arraytest.com,,,,,,
,105,STUART.MUNSON,Stuart,Munson,Stuart.Munson@arraytest.com,,,,,,
,105,ABIGAIL.MURPHY,Abigail,Murphy,Abigail.Murphy@arraytest.com,,,,,,
,105,ALEX.MURPHY,Alex,Murphy,Alex.Murphy@arraytest.com,,,,,,
,105,ALEXA.MURPHY,Alexa,Murphy,Alexa.Murphy@arraytest.com,,,,,,
,105,ALEXANDRA.MURPHY,Alexandra,Murphy,Alexandra.Murphy@arraytest.com,,,,,,
,105,ALEXANDRIA.MURPHY,Alexandria,Murphy,Alexandria.Murphy@arraytest.com,,,,,,
,105,ALLISON.MURPHY,Allison,Murphy,Allison.Murphy@arraytest.com,,,,,,
,105,ALYSSA.MURPHY,Alyssa,Murphy,Alyssa.Murphy@arraytest.com,,,,,,
,105,ANDREA.MURPHY,Andrea,Murphy,Andrea.Murphy@arraytest.com,,,,,,
,105,ANGEL.MURPHY,Angel,Murphy,Angel.Murphy@arraytest.com,,,,,,
,105,ANGELA.MURPHY,Angela,Murphy,Angela.Murphy@arraytest.com,,,,,,
,105,ANNA.MURPHY,Anna,Murphy,Anna.Murphy@arraytest.com,,,,,,
,105,ARIANA.MURPHY,Ariana,Murphy,Ariana.Murphy@arraytest.com,,,,,,
,105,ARIANNA.MURPHY,Arianna,Murphy,Arianna.Murphy@arraytest.com,,,,,,
,105,BAILEY.MURPHY,Bailey,Murphy,Bailey.Murphy@arraytest.com,,,,,,
,105,BRIAN.MURPHY,Brian,Murphy,Brian.Murphy@arraytest.com,,,,,,
,105,BRIANNA.MURPHY,Brianna,Murphy,Brianna.Murphy@arraytest.com,,,,,,
,105,BROOKE.MURPHY,Brooke,Murphy,Brooke.Murphy@arraytest.com,,,,,,
,105,BRYAN.MURPHY,Bryan,Murphy,Bryan.Murphy@arraytest.com,,,,,,
,105,BRYCE.MURPHY,Bryce,Murphy,Bryce.Murphy@arraytest.com,,,,,,
,105,CAITLIN.MURPHY,Caitlin,Murphy,Caitlin.Murphy@arraytest.com,,,,,,
,105,CARLOS.MURPHY,Carlos,Murphy,Carlos.Murphy@arraytest.com,,,,,,
,105,CATHERINE.MURPHY,Catherine,Murphy,Catherine.Murphy@arraytest.com,,,,,,
,105,CHARLES.MURPHY,Charles,Murphy,Charles.Murphy@arraytest.com,,,,,,
,105,CHASE.MURPHY,Chase,Murphy,Chase.Murphy@arraytest.com,,,,,,
,105,CHRISTINA.MURPHY,Christina,Murphy,Christina.Murphy@arraytest.com,,,,,,
,105,CINDY.MURPHY,Cindy,Murphy,Cindy.Murphy@arraytest.com,,,,,,
,105,CODY.MURPHY,Cody,Murphy,Cody.Murphy@arraytest.com,,,,,,
,105,COLE.MURPHY,Cole,Murphy,Cole.Murphy@arraytest.com,,,,,,
,105,DALTON.MURPHY,Dalton,Murphy,Dalton.Murphy@arraytest.com,,,,,,
,105,DANIELLE.MURPHY,Danielle,Murphy,Danielle.Murphy@arraytest.com,,,,,,
,105,DESTINY.MURPHY,Destiny,Murphy,Destiny.Murphy@arraytest.com,,,,,,
,105,DEVIN.MURPHY,Devin,Murphy,Devin.Murphy@arraytest.com,,,,,,
,105,EDUARDO.MURPHY,Eduardo,Murphy,Eduardo.Murphy@arraytest.com,,,,,,
,105,EMMA.MURPHY,Emma,Murphy,Emma.Murphy@arraytest.com,,,,,,
,105,ERIN.MURPHY,Erin,Murphy,Erin.Murphy@arraytest.com,,,,,,
,105,EVAN.MURPHY,Evan,Murphy,Evan.Murphy@arraytest.com,,,,,,
,105,FAITH.MURPHY,Faith,Murphy,Faith.Murphy@arraytest.com,,,,,,
,105,GABRIELLA.MURPHY,Gabriella,Murphy,Gabriella.Murphy@arraytest.com,,,,,,
,105,GABRIELLE.MURPHY,Gabrielle,Murphy,Gabrielle.Murphy@arraytest.com,,,,,,
,105,GARRETT.MURPHY,Garrett,Murphy,Garrett.Murphy@arraytest.com,,,,,,
,105,GRACE.MURPHY,Grace,Murphy,Grace.Murphy@arraytest.com,,,,,,
,105,HAILEY.MURPHY,Hailey,Murphy,Hailey.Murphy@arraytest.com,,,,,,
,105,HALEY.MURPHY,Haley,Murphy,Haley.Murphy@arraytest.com,,,,,,
,105,IAN.MURPHY,Ian,Murphy,Ian.Murphy@arraytest.com,,,,,,
,105,ISAAC.MURPHY,Isaac,Murphy,Isaac.Murphy@arraytest.com,,,,,,
,105,ISABELLA.MURPHY,Isabella,Murphy,Isabella.Murphy@arraytest.com,,,,,,
,105,ISAIAH.MURPHY,Isaiah,Murphy,Isaiah.Murphy@arraytest.com,,,,,,
,105,JACQUELINE.MURPHY,Jacqueline,Murphy,Jacqueline.Murphy@arraytest.com,,,,,,
,105,JADA.MURPHY,Jada,Murphy,Jada.Murphy@arraytest.com,,,,,,
,105,JADE.MURPHY,Jade,Murphy,Jade.Murphy@arraytest.com,,,,,,
,105,JENNIFER.MURPHY,Jennifer,Murphy,Jennifer.Murphy@arraytest.com,,,,,,
,105,JEREMY.MURPHY,Jeremy,Murphy,Jeremy.Murphy@arraytest.com,,,,,,
,105,JESSE.MURPHY,Jesse,Murphy,Jesse.Murphy@arraytest.com,,,,,,
,105,JESSICA.MURPHY,Jessica,Murphy,Jessica.Murphy@arraytest.com,,,,,,
,105,JILL.MURPHY,Jill,Murphy,Jill.Murphy@arraytest.com,,,,,,
,105,JUAN.MURPHY,Juan,Murphy,Juan.Murphy@arraytest.com,,,,,,
,105,JUDITH.MURPHY,Judith,Murphy,Judith.Murphy@arraytest.com,,,,,,
,105,KAITLYN.MURPHY,Kaitlyn,Murphy,Kaitlyn.Murphy@arraytest.com,,,,,,
,105,KATELYN.MURPHY,Katelyn,Murphy,Katelyn.Murphy@arraytest.com,,,,,,
,105,KAYLEE.MURPHY,Kaylee,Murphy,Kaylee.Murphy@arraytest.com,,,,,,
,105,KIMBERLY.MURPHY,Kimberly,Murphy,Kimberly.Murphy@arraytest.com,,,,,,
,105,ALEX.BAKER,Alex,Baker,Alex.Baker@arraytest.com,,,,,,
,105,ALEXANDRA.BAKER,Alexandra,Baker,Alexandra.Baker@arraytest.com,,,,,,
,105,ALLISON.BAKER,Allison,Baker,Allison.Baker@arraytest.com,,,,,,
,105,AMANDA.BAKER,Amanda,Baker,Amanda.Baker@arraytest.com,,,,,,
,105,AMBER.BAKER,Amber,Baker,Amber.Baker@arraytest.com,,,,,,
,105,ANDREA.BAKER,Andrea,Baker,Andrea.Baker@arraytest.com,,,,,,
,105,ANGEL.BAKER,Angel,Baker,Angel.Baker@arraytest.com,,,,,,
,105,BAILEY.BAKER,Bailey,Baker,Bailey.Baker@arraytest.com,,,,,,
,105,BEVERLY.BAKER,Beverly,Baker,Beverly.Baker@arraytest.com,,,,,,
,105,BLAKE.BAKER,Blake,Baker,Blake.Baker@arraytest.com,,,,,,
,105,BRYAN.BAKER,Bryan,Baker,Bryan.Baker@arraytest.com,,,,,,
,105,CALEB.BAKER,Caleb,Baker,Caleb.Baker@arraytest.com,,,,,,
,105,CARLOS.BAKER,Carlos,Baker,Carlos.Baker@arraytest.com,,,,,,
,105,CHARLES.BAKER,Charles,Baker,Charles.Baker@arraytest.com,,,,,,
,105,CHLOE.BAKER,Chloe,Baker,Chloe.Baker@arraytest.com,,,,,,
,105,CONNOR.BAKER,Connor,Baker,Connor.Baker@arraytest.com,,,,,,
,105,COURTNEY.BAKER,Courtney,Baker,Courtney.Baker@arraytest.com,,,,,,
,105,DALTON.BAKER,Dalton,Baker,Dalton.Baker@arraytest.com,,,,,,
,105,DAN.BAKER,Dan,Baker,Dan.Baker@arraytest.com,,,,,,
,105,DEVIN.BAKER,Devin,Baker,Devin.Baker@arraytest.com,,,,,,
,105,EDUARDO.BAKER,Eduardo,Baker,Eduardo.Baker@arraytest.com,,,,,,
,105,EDWARD.BAKER,Edward,Baker,Edward.Baker@arraytest.com,,,,,,
,105,ELIJAH.BAKER,Elijah,Baker,Elijah.Baker@arraytest.com,,,,,,
,105,ERIC.BAKER,Eric,Baker,Eric.Baker@arraytest.com,,,,,,
,105,EVAN.BAKER,Evan,Baker,Evan.Baker@arraytest.com,,,,,,
,105,FERNANDO.BAKER,Fernando,Baker,Fernando.Baker@arraytest.com,,,,,,
,105,GABRIEL.BAKER,Gabriel,Baker,Gabriel.Baker@arraytest.com,,,,,,
,105,GABRIELLA.BAKER,Gabriella,Baker,Gabriella.Baker@arraytest.com,,,,,,
,105,GABRIELLE.BAKER,Gabrielle,Baker,Gabrielle.Baker@arraytest.com,,,,,,
,105,HAILEY.BAKER,Hailey,Baker,Hailey.Baker@arraytest.com,,,,,,
,105,HUNTER.BAKER,Hunter,Baker,Hunter.Baker@arraytest.com,,,,,,
,105,IAN.BAKER,Ian,Baker,Ian.Baker@arraytest.com,,,,,,
,105,ISABELLA.BAKER,Isabella,Baker,Isabella.Baker@arraytest.com,,,,,,
,105,ISAIAH.BAKER,Isaiah,Baker,Isaiah.Baker@arraytest.com,,,,,,
,105,JACK.BAKER,Jack,Baker,Jack.Baker@arraytest.com,,,,,,
,105,JADA.BAKER,Jada,Baker,Jada.Baker@arraytest.com,,,,,,
,105,JAMES.BAKER,James,Baker,James.Baker@arraytest.com,,,,,,
,105,JENNA.BAKER,Jenna,Baker,Jenna.Baker@arraytest.com,,,,,,
,105,JENNIFER.BAKER,Jennifer,Baker,Jennifer.Baker@arraytest.com,,,,,,
,105,JEREMY.BAKER,Jeremy,Baker,Jeremy.Baker@arraytest.com,,,,,,
,105,JESSE.BAKER,Jesse,Baker,Jesse.Baker@arraytest.com,,,,,,
,105,JONATHAN.BAKER,Jonathan,Baker,Jonathan.Baker@arraytest.com,,,,,,
,105,JORDAN.BAKER,Jordan,Baker,Jordan.Baker@arraytest.com,,,,,,
,105,JOSE.BAKER,Jose,Baker,Jose.Baker@arraytest.com,,,,,,
,105,JULIA.BAKER,Julia,Baker,Julia.Baker@arraytest.com,,,,,,
,105,KAITLYN.BAKER,Kaitlyn,Baker,Kaitlyn.Baker@arraytest.com,,,,,,
,105,KATELYN.BAKER,Katelyn,Baker,Katelyn.Baker@arraytest.com,,,,,,
,105,KATHERINE.BAKER,Katherine,Baker,Katherine.Baker@arraytest.com,,,,,,
,105,KAYLEE.BAKER,Kaylee,Baker,Kaylee.Baker@arraytest.com,,,,,,
,105,KEVIN.BAKER,Kevin,Baker,Kevin.Baker@arraytest.com,,,,,,
,105,KYLE.BAKER,Kyle,Baker,Kyle.Baker@arraytest.com,,,,,,
,105,LOGAN.BAKER,Logan,Baker,Logan.Baker@arraytest.com,,,,,,
,105,LUCAS.BAKER,Lucas,Baker,Lucas.Baker@arraytest.com,,,,,,
,105,LUIS.BAKER,Luis,Baker,Luis.Baker@arraytest.com,,,,,,
,105,LUKE.BAKER,Luke,Baker,Luke.Baker@arraytest.com,,,,,,
,105,MACKENZIE.BAKER,Mackenzie,Baker,Mackenzie.Baker@arraytest.com,,,,,,
,105,MADELINE.BAKER,Madeline,Baker,Madeline.Baker@arraytest.com,,,,,,
,105,MARCUS.BAKER,Marcus,Baker,Marcus.Baker@arraytest.com,,,,,,
,105,MARIA.BAKER,Maria,Baker,Maria.Baker@arraytest.com,,,,,,
,105,MARY.BAKER,Mary,Baker,Mary.Baker@arraytest.com,,,,,,
,105,MASON.BAKER,Mason,Baker,Mason.Baker@arraytest.com,,,,,,
,105,MIGUEL.BAKER,Miguel,Baker,Miguel.Baker@arraytest.com,,,,,,
,105,MORGAN.BAKER,Morgan,Baker,Morgan.Baker@arraytest.com,,,,,,
,105,NATALIE.BAKER,Natalie,Baker,Natalie.Baker@arraytest.com,,,,,,
,105,NATHAN.BAKER,Nathan,Baker,Nathan.Baker@arraytest.com,,,,,,
,105,NOAH.BAKER,Noah,Baker,Noah.Baker@arraytest.com,,,,,,
,105,REBECCA.BAKER,Rebecca,Baker,Rebecca.Baker@arraytest.com,,,,,,
,105,BRYCE.BELL,Bryce,Bell,Bryce.Bell@arraytest.com,,,,,,
,105,CAITLIN.BELL,Caitlin,Bell,Caitlin.Bell@arraytest.com,,,,,,
,105,CARLOS.BELL,Carlos,Bell,Carlos.Bell@arraytest.com,,,,,,
,105,CHARLES.BELL,Charles,Bell,Charles.Bell@arraytest.com,,,,,,
,105,CHASE.BELL,Chase,Bell,Chase.Bell@arraytest.com,,,,,,
,105,CHLOE.BELL,Chloe,Bell,Chloe.Bell@arraytest.com,,,,,,
,105,CHRISTINA.BELL,Christina,Bell,Christina.Bell@arraytest.com,,,,,,
,105,CODY.BELL,Cody,Bell,Cody.Bell@arraytest.com,,,,,,
,105,COLE.BELL,Cole,Bell,Cole.Bell@arraytest.com,,,,,,
,105,DALTON.BELL,Dalton,Bell,Dalton.Bell@arraytest.com,,,,,,
,105,DANIELLE.BELL,Danielle,Bell,Danielle.Bell@arraytest.com,,,,,,
,105,DESTINY.BELL,Destiny,Bell,Destiny.Bell@arraytest.com,,,,,,
,105,DEVIN.BELL,Devin,Bell,Devin.Bell@arraytest.com,,,,,,
,105,EDUARDO.BELL,Eduardo,Bell,Eduardo.Bell@arraytest.com,,,,,,
,105,GABRIELLA.BELL,Gabriella,Bell,Gabriella.Bell@arraytest.com,,,,,,
,105,GABRIELLE.BELL,Gabrielle,Bell,Gabrielle.Bell@arraytest.com,,,,,,
,105,GARRETT.BELL,Garrett,Bell,Garrett.Bell@arraytest.com,,,,,,
,105,GRACE.BELL,Grace,Bell,Grace.Bell@arraytest.com,,,,,,
,105,HALEY.BELL,Haley,Bell,Haley.Bell@arraytest.com,,,,,,
,105,IAN.BELL,Ian,Bell,Ian.Bell@arraytest.com,,,,,,
,105,ISABELLA.BELL,Isabella,Bell,Isabella.Bell@arraytest.com,,,,,,
,105,ISAIAH.BELL,Isaiah,Bell,Isaiah.Bell@arraytest.com,,,,,,
,105,JACQUELINE.BELL,Jacqueline,Bell,Jacqueline.Bell@arraytest.com,,,,,,
,105,JADA.BELL,Jada,Bell,Jada.Bell@arraytest.com,,,,,,
,105,JADE.BELL,Jade,Bell,Jade.Bell@arraytest.com,,,,,,
,105,JARED.BELL,Jared,Bell,Jared.Bell@arraytest.com,,,,,,
,105,JASMINE.BELL,Jasmine,Bell,Jasmine.Bell@arraytest.com,,,,,,
,105,JENNIFER.BELL,Jennifer,Bell,Jennifer.Bell@arraytest.com,,,,,,
,105,JEREMY.BELL,Jeremy,Bell,Jeremy.Bell@arraytest.com,,,,,,
,105,JESSE.BELL,Jesse,Bell,Jesse.Bell@arraytest.com,,,,,,
,105,JESSICA.BELL,Jessica,Bell,Jessica.Bell@arraytest.com,,,,,,
,105,JUAN.BELL,Juan,Bell,Juan.Bell@arraytest.com,,,,,,
,105,JULIA.BELL,Julia,Bell,Julia.Bell@arraytest.com,,,,,,
,105,KATELYN.BELL,Katelyn,Bell,Katelyn.Bell@arraytest.com,,,,,,
,105,SAVANNAH.BELL,Savannah,Bell,Savannah.Bell@arraytest.com,,,,,,
,105,SEBASTIAN.BELL,Sebastian,Bell,Sebastian.Bell@arraytest.com,,,,,,
,105,SETH.BELL,Seth,Bell,Seth.Bell@arraytest.com,,,,,,
,105,STEPHANIE.BELL,Stephanie,Bell,Stephanie.Bell@arraytest.com,,,,,,
,105,STEVEN.BELL,Steven,Bell,Steven.Bell@arraytest.com,,,,,,
,105,SYDNEY.BELL,Sydney,Bell,Sydney.Bell@arraytest.com,,,,,,
,105,TAYLOR.BELL,Taylor,Bell,Taylor.Bell@arraytest.com,,,,,,
,105,TIMOTHY.BELL,Timothy,Bell,Timothy.Bell@arraytest.com,,,,,,
,105,TRINITY.BELL,Trinity,Bell,Trinity.Bell@arraytest.com,,,,,,
,105,XAVIER.BELL,Xavier,Bell,Xavier.Bell@arraytest.com,,,,,,
,105,ZOE.BELL,Zoe,Bell,Zoe.Bell@arraytest.com,,,,,,
,105,SHANE.BELLI,Shane,Belli,Shane.Belli@arraytest.com,,,,,,
,105,JOE.BELSON,Joe,Belson,Joe.Belson@arraytest.com,,,,,,
,105,MASON.BENDIXEN,Mason,Bendixen,Mason.Bendixen@arraytest.com,,,,,,
,105,ABIGAIL.BENNETT,Abigail,Bennett,Abigail.Bennett@arraytest.com,,,,,,
,105,AIDAN.BENNETT,Aidan,Bennett,Aidan.Bennett@arraytest.com,,,,,,
,105,ALEXANDRA.BENNETT,Alexandra,Bennett,Alexandra.Bennett@arraytest.com,,,,,,
,105,ALEXIA.BENNETT,Alexia,Bennett,Alexia.Bennett@arraytest.com,,,,,,
,105,ALEXIS.BENNETT,Alexis,Bennett,Alexis.Bennett@arraytest.com,,,,,,
,105,AMANDA.BENNETT,Amanda,Bennett,Amanda.Bennett@arraytest.com,,,,,,
,105,ANGELA.BENNETT,Angela,Bennett,Angela.Bennett@arraytest.com,,,,,,
,105,ANGELICA.BENNETT,Angelica,Bennett,Angelica.Bennett@arraytest.com,,,,,,
,105,ANTONIO.BENNETT,Antonio,Bennett,Antonio.Bennett@arraytest.com,,,,,,
,105,ARIANNA.BENNETT,Arianna,Bennett,Arianna.Bennett@arraytest.com,,,,,,
,105,ASHLEY.BENNETT,Ashley,Bennett,Ashley.Bennett@arraytest.com,,,,,,
,105,BLAKE.BENNETT,Blake,Bennett,Blake.Bennett@arraytest.com,,,,,,
,105,BRITTANY.BENNETT,Brittany,Bennett,Brittany.Bennett@arraytest.com,,,,,,
,105,CAROLINE.BENNETT,Caroline,Bennett,Caroline.Bennett@arraytest.com,,,,,,
,105,CASSIDY.BENNETT,Cassidy,Bennett,Cassidy.Bennett@arraytest.com,,,,,,
,105,CHLOE.BENNETT,Chloe,Bennett,Chloe.Bennett@arraytest.com,,,,,,
,105,DALTON.BENNETT,Dalton,Bennett,Dalton.Bennett@arraytest.com,,,,,,
,105,DESTINY.BENNETT,Destiny,Bennett,Destiny.Bennett@arraytest.com,,,,,,
,105,JAMIE.CARLSON,Jamie,Carlson,Jamie.Carlson@arraytest.com,,,,,,
,105,JANET.CARLSON,Janet,Carlson,Janet.Carlson@arraytest.com,,,,,,
,105,JAY.CARLSON,Jay,Carlson,Jay.Carlson@arraytest.com,,,,,,
,105,JEROME.CARLSON,Jerome,Carlson,Jerome.Carlson@arraytest.com,,,,,,
,105,JESSIE.CARLSON,Jessie,Carlson,Jessie.Carlson@arraytest.com,,,,,,
,105,JÉSUS.CARLSON,Jésus,Carlson,Jésus.Carlson@arraytest.com,,,,,,
,105,JILL.CARLSON,Jill,Carlson,Jill.Carlson@arraytest.com,,,,,,
,105,JIMMY.CARLSON,Jimmy,Carlson,Jimmy.Carlson@arraytest.com,,,,,,
,105,JOANNA.CARLSON,Joanna,Carlson,Joanna.Carlson@arraytest.com,,,,,,
,105,JOE.CARLSON,Joe,Carlson,Joe.Carlson@arraytest.com,,,,,,
,105,JONATHON.CARLSON,Jonathon,Carlson,Jonathon.Carlson@arraytest.com,,,,,,
,105,JOSE.CARLSON,Jose,Carlson,Jose.Carlson@arraytest.com,,,,,,
,105,JOY.CARLSON,Joy,Carlson,Joy.Carlson@arraytest.com,,,,,,
,105,JULIO.CARLSON,Julio,Carlson,Julio.Carlson@arraytest.com,,,,,,
,105,KARI.CARLSON,Kari,Carlson,Kari.Carlson@arraytest.com,,,,,,
,105,KATHLEEN.CARLSON,Kathleen,Carlson,Kathleen.Carlson@arraytest.com,,,,,,
,105,KENDRA.CARLSON,Kendra,Carlson,Kendra.Carlson@arraytest.com,,,,,,
,105,KRISTA.CARLSON,Krista,Carlson,Krista.Carlson@arraytest.com,,,,,,
,105,KRISTI.CARLSON,Kristi,Carlson,Kristi.Carlson@arraytest.com,,,,,,
,105,KRISTINE.CARLSON,Kristine,Carlson,Kristine.Carlson@arraytest.com,,,,,,
,105,KRISTY.CARLSON,Kristy,Carlson,Kristy.Carlson@arraytest.com,,,,,,
,105,LANCE.CARLSON,Lance,Carlson,Lance.Carlson@arraytest.com,,,,,,
,105,LATASHA.CARLSON,Latasha,Carlson,Latasha.Carlson@arraytest.com,,,,,,
,105,LAWRENCE.CARLSON,Lawrence,Carlson,Lawrence.Carlson@arraytest.com,,,,,,
,105,LEE.CARLSON,Lee,Carlson,Lee.Carlson@arraytest.com,,,,,,
,105,LINDA.CARLSON,Linda,Carlson,Linda.Carlson@arraytest.com,,,,,,
,105,MALLORY.CARLSON,Mallory,Carlson,Mallory.Carlson@arraytest.com,,,,,,
,105,MARC.CARLSON,Marc,Carlson,Marc.Carlson@arraytest.com,,,,,,
,105,MARIE.CARLSON,Marie,Carlson,Marie.Carlson@arraytest.com,,,,,,
,105,MATHEW.CARLSON,Mathew,Carlson,Mathew.Carlson@arraytest.com,,,,,,
,105,MEGHAN.CARLSON,Meghan,Carlson,Meghan.Carlson@arraytest.com,,,,,,
,105,MELINDA.CARLSON,Melinda,Carlson,Melinda.Carlson@arraytest.com,,,,,,
,105,MELODY.CARLSON,Melody,Carlson,Melody.Carlson@arraytest.com,,,,,,
,105,MEREDITH.CARLSON,Meredith,Carlson,Meredith.Carlson@arraytest.com,,,,,,
,105,MICHEAL.CARLSON,Micheal,Carlson,Micheal.Carlson@arraytest.com,,,,,,
,105,MICHELE.CARLSON,Michele,Carlson,Michele.Carlson@arraytest.com,,,,,,
,105,NATASHA.CARLSON,Natasha,Carlson,Natasha.Carlson@arraytest.com,,,,,,
,105,NEIL.CARLSON,Neil,Carlson,Neil.Carlson@arraytest.com,,,,,,
,105,NELSON.CARLSON,Nelson,Carlson,Nelson.Carlson@arraytest.com,,,,,,
,105,ORLANDO.CARLSON,Orlando,Carlson,Orlando.Carlson@arraytest.com,,,,,,
,105,PAMELA.CARLSON,Pamela,Carlson,Pamela.Carlson@arraytest.com,,,,,,
,105,PAULA.CARLSON,Paula,Carlson,Paula.Carlson@arraytest.com,,,,,,
,105,PHILIP.CARLSON,Philip,Carlson,Philip.Carlson@arraytest.com,,,,,,
,105,RANDALL.CARLSON,Randall,Carlson,Randall.Carlson@arraytest.com,,,,,,
,105,REBEKAH.CARLSON,Rebekah,Carlson,Rebekah.Carlson@arraytest.com,,,,,,
,105,REGINALD.CARLSON,Reginald,Carlson,Reginald.Carlson@arraytest.com,,,,,,
,105,RENEE.CARLSON,Renee,Carlson,Renee.Carlson@arraytest.com,,,,,,
,105,RICKY.CARLSON,Ricky,Carlson,Ricky.Carlson@arraytest.com,,,,,,
,105,ROBIN.CARLSON,Robin,Carlson,Robin.Carlson@arraytest.com,,,,,,
,105,ROBYN.CARLSON,Robyn,Carlson,Robyn.Carlson@arraytest.com,,,,,,
,105,ROSS.CARLSON,Ross,Carlson,Ross.Carlson@arraytest.com,,,,,,
,105,ROY.CARLSON,Roy,Carlson,Roy.Carlson@arraytest.com,,,,,,
,105,RUBEN.CARLSON,Ruben,Carlson,Ruben.Carlson@arraytest.com,,,,,,
,105,SABRINA.CARLSON,Sabrina,Carlson,Sabrina.Carlson@arraytest.com,,,,,,
,105,SHANNON.CARLSON,Shannon,Carlson,Shannon.Carlson@arraytest.com,,,,,,
,105,STACY.CARLSON,Stacy,Carlson,Stacy.Carlson@arraytest.com,,,,,,
,105,TABITHA.CARLSON,Tabitha,Carlson,Tabitha.Carlson@arraytest.com,,,,,,
,105,TANYA.CARLSON,Tanya,Carlson,Tanya.Carlson@arraytest.com,,,,,,
,105,TERESA.CARLSON,Teresa,Carlson,Teresa.Carlson@arraytest.com,,,,,,
,105,THEODORE.CARLSON,Theodore,Carlson,Theodore.Carlson@arraytest.com,,,,,,
,105,THERESA.CARLSON,Theresa,Carlson,Theresa.Carlson@arraytest.com,,,,,,
,105,DARRELL.ANDERSEN,Darrell,Andersen,Darrell.Andersen@arraytest.com,,,,,,
,105,DAWN.ANDERSEN,Dawn,Andersen,Dawn.Andersen@arraytest.com,,,,,,
,105,DEBORAH.ANDERSEN,Deborah,Andersen,Deborah.Andersen@arraytest.com,,,,,,
,105,DREW.ANDERSEN,Drew,Andersen,Drew.Andersen@arraytest.com,,,,,,
,105,DUSTIN.ANDERSEN,Dustin,Andersen,Dustin.Andersen@arraytest.com,,,,,,
,105,GILBERT.ANDERSEN,Gilbert,Andersen,Gilbert.Andersen@arraytest.com,,,,,,
,105,GRANT.ANDERSEN,Grant,Andersen,Grant.Andersen@arraytest.com,,,,,,
,105,GREGORY.ANDERSEN,Gregory,Andersen,Gregory.Andersen@arraytest.com,,,,,,
,105,JACLYN.ANDERSEN,Jaclyn,Andersen,Jaclyn.Andersen@arraytest.com,,,,,,
,105,JAIME.ANDERSEN,Jaime,Andersen,Jaime.Andersen@arraytest.com,,,,,,
,105,JENNY.ANDERSEN,Jenny,Andersen,Jenny.Andersen@arraytest.com,,,,,,
,105,JERRY.ANDERSEN,Jerry,Andersen,Jerry.Andersen@arraytest.com,,,,,,
,105,JODI.ANDERSEN,Jodi,Andersen,Jodi.Andersen@arraytest.com,,,,,,
,105,JOHNNY.ANDERSEN,Johnny,Andersen,Johnny.Andersen@arraytest.com,,,,,,
,105,JON.ANDERSEN,Jon,Andersen,Jon.Andersen@arraytest.com,,,,,,
,105,JULIE.ANDERSEN,Julie,Andersen,Julie.Andersen@arraytest.com,,,,,,
,105,KARA.ANDERSEN,Kara,Andersen,Kara.Andersen@arraytest.com,,,,,,
,105,KARL.ANDERSEN,Karl,Andersen,Karl.Andersen@arraytest.com,,,,,,
,105,KARLA.ANDERSEN,Karla,Andersen,Karla.Andersen@arraytest.com,,,,,,
,105,KATE.ANDERSEN,Kate,Andersen,Kate.Andersen@arraytest.com,,,,,,
,105,KATHRYN.ANDERSEN,Kathryn,Andersen,Kathryn.Andersen@arraytest.com,,,,,,
,105,KATRINA.ANDERSEN,Katrina,Andersen,Katrina.Andersen@arraytest.com,,,,,,
,105,KEITH.ANDERSEN,Keith,Andersen,Keith.Andersen@arraytest.com,,,,,,
,105,KELLI.ANDERSEN,Kelli,Andersen,Kelli.Andersen@arraytest.com,,,,,,
,105,KELVIN.ANDERSEN,Kelvin,Andersen,Kelvin.Andersen@arraytest.com,,,,,,
,105,KENNETH.ANDERSEN,Kenneth,Andersen,Kenneth.Andersen@arraytest.com,,,,,,
,105,KRISTIN.ANDERSEN,Kristin,Andersen,Kristin.Andersen@arraytest.com,,,,,,
,105,KURT.ANDERSEN,Kurt,Andersen,Kurt.Andersen@arraytest.com,,,,,,
,105,LACEY.ANDERSEN,Lacey,Andersen,Lacey.Andersen@arraytest.com,,,,,,
,105,LATOYA.ANDERSEN,Latoya,Andersen,Latoya.Andersen@arraytest.com,,,,,,
,105,LEONARD.ANDERSEN,Leonard,Andersen,Leonard.Andersen@arraytest.com,,,,,,
,105,LINDSAY.ANDERSEN,Lindsay,Andersen,Lindsay.Andersen@arraytest.com,,,,,,
,105,LINDSEY.ANDERSEN,Lindsey,Andersen,Lindsey.Andersen@arraytest.com,,,,,,
,105,LOUIS.ANDERSEN,Louis,Andersen,Louis.Andersen@arraytest.com,,,,,,
,105,MARIO.ANDERSEN,Mario,Andersen,Mario.Andersen@arraytest.com,,,,,,
,105,MARSHALL.ANDERSEN,Marshall,Andersen,Marshall.Andersen@arraytest.com,,,,,,
,105,MAURICE.ANDERSEN,Maurice,Andersen,Maurice.Andersen@arraytest.com,,,,,,
,105,MELVIN.ANDERSEN,Melvin,Andersen,Melvin.Andersen@arraytest.com,,,,,,
,105,MICHELE.ANDERSEN,Michele,Andersen,Michele.Andersen@arraytest.com,,,,,,
,105,MITCHELL.ANDERSEN,Mitchell,Andersen,Mitchell.Andersen@arraytest.com,,,,,,
,105,NICHOLE.ANDERSEN,Nichole,Andersen,Nichole.Andersen@arraytest.com,,,,,,
,105,NICOLAS.ANDERSEN,Nicolas,Andersen,Nicolas.Andersen@arraytest.com,,,,,,
,105,NINA.ANDERSEN,Nina,Andersen,Nina.Andersen@arraytest.com,,,,,,
,105,OMAR.ANDERSEN,Omar,Andersen,Omar.Andersen@arraytest.com,,,,,,
,105,PRISCILLA.ANDERSEN,Priscilla,Andersen,Priscilla.Andersen@arraytest.com,,,,,,
,105,RAFAEL.ANDERSEN,Rafael,Andersen,Rafael.Andersen@arraytest.com,,,,,,
,105,RICARDO.ANDERSEN,Ricardo,Andersen,Ricardo.Andersen@arraytest.com,,,,,,
,105,ROGER.ANDERSEN,Roger,Andersen,Roger.Andersen@arraytest.com,,,,,,
,105,RUSSELL.ANDERSEN,Russell,Andersen,Russell.Andersen@arraytest.com,,,,,,
,105,SHARON.ANDERSEN,Sharon,Andersen,Sharon.Andersen@arraytest.com,,,,,,
,105,SHAUN.ANDERSEN,Shaun,Andersen,Shaun.Andersen@arraytest.com,,,,,,
,105,SHAWN.ANDERSEN,Shawn,Andersen,Shawn.Andersen@arraytest.com,,,,,,
,105,SHAWNA.ANDERSEN,Shawna,Andersen,Shawna.Andersen@arraytest.com,,,,,,
,105,SHEENA.ANDERSEN,Sheena,Andersen,Sheena.Andersen@arraytest.com,,,,,,
,105,TAMARA.ANDERSEN,Tamara,Andersen,Tamara.Andersen@arraytest.com,,,,,,
,105,TARA.ANDERSEN,Tara,Andersen,Tara.Andersen@arraytest.com,,,,,,
,105,TASHA.ANDERSEN,Tasha,Andersen,Tasha.Andersen@arraytest.com,,,,,,
,105,TERRENCE.ANDERSEN,Terrence,Andersen,Terrence.Andersen@arraytest.com,,,,,,
,105,FAITH.BAILEY,Faith,Bailey,Faith.Bailey@arraytest.com,,,,,,
,105,GABRIELLA.BAILEY,Gabriella,Bailey,Gabriella.Bailey@arraytest.com,,,,,,
,105,GARRETT.BAILEY,Garrett,Bailey,Garrett.Bailey@arraytest.com,,,,,,
,105,GRACE.BAILEY,Grace,Bailey,Grace.Bailey@arraytest.com,,,,,,
,105,HAILEY.BAILEY,Hailey,Bailey,Hailey.Bailey@arraytest.com,,,,,,
,105,HALEY.BAILEY,Haley,Bailey,Haley.Bailey@arraytest.com,,,,,,
,105,IAN.BAILEY,Ian,Bailey,Ian.Bailey@arraytest.com,,,,,,
,105,ISAAC.BAILEY,Isaac,Bailey,Isaac.Bailey@arraytest.com,,,,,,
,105,ISABELLA.BAILEY,Isabella,Bailey,Isabella.Bailey@arraytest.com,,,,,,
,105,ISAIAH.BAILEY,Isaiah,Bailey,Isaiah.Bailey@arraytest.com,,,,,,
,105,JACQUELINE.BAILEY,Jacqueline,Bailey,Jacqueline.Bailey@arraytest.com,,,,,,
,105,JADA.BAILEY,Jada,Bailey,Jada.Bailey@arraytest.com,,,,,,
,105,JADE.BAILEY,Jade,Bailey,Jade.Bailey@arraytest.com,,,,,,
,105,JAMES.BAILEY,James,Bailey,James.Bailey@arraytest.com,,,,,,
,105,JARED.BAILEY,Jared,Bailey,Jared.Bailey@arraytest.com,,,,,,
,105,JASMINE.BAILEY,Jasmine,Bailey,Jasmine.Bailey@arraytest.com,,,,,,
,105,JENNIFER.BAILEY,Jennifer,Bailey,Jennifer.Bailey@arraytest.com,,,,,,
,105,JEREMY.BAILEY,Jeremy,Bailey,Jeremy.Bailey@arraytest.com,,,,,,
,105,JESSE.BAILEY,Jesse,Bailey,Jesse.Bailey@arraytest.com,,,,,,
,105,JESSICA.BAILEY,Jessica,Bailey,Jessica.Bailey@arraytest.com,,,,,,
,105,JUAN.BAILEY,Juan,Bailey,Juan.Bailey@arraytest.com,,,,,,
,105,JULIA.BAILEY,Julia,Bailey,Julia.Bailey@arraytest.com,,,,,,
,105,KAITLYN.BAILEY,Kaitlyn,Bailey,Kaitlyn.Bailey@arraytest.com,,,,,,
,105,KATELYN.BAILEY,Katelyn,Bailey,Katelyn.Bailey@arraytest.com,,,,,,
,105,KATHERINE.BAILEY,Katherine,Bailey,Katherine.Bailey@arraytest.com,,,,,,
,105,KAYLEE.BAILEY,Kaylee,Bailey,Kaylee.Bailey@arraytest.com,,,,,,
,105,KIMBERLY.BAILEY,Kimberly,Bailey,Kimberly.Bailey@arraytest.com,,,,,,
,105,LAUREN.BAILEY,Lauren,Bailey,Lauren.Bailey@arraytest.com,,,,,,
,105,LUCAS.BAILEY,Lucas,Bailey,Lucas.Bailey@arraytest.com,,,,,,
,105,MACKENZIE.BAILEY,Mackenzie,Bailey,Mackenzie.Bailey@arraytest.com,,,,,,
,105,MAKAYLA.BAILEY,Makayla,Bailey,Makayla.Bailey@arraytest.com,,,,,,
,105,MARCUS.BAILEY,Marcus,Bailey,Marcus.Bailey@arraytest.com,,,,,,
,105,MARIA.BAILEY,Maria,Bailey,Maria.Bailey@arraytest.com,,,,,,
,105,MARIAH.BAILEY,Mariah,Bailey,Mariah.Bailey@arraytest.com,,,,,,
,105,MEGAN.BAILEY,Megan,Bailey,Megan.Bailey@arraytest.com,,,,,,
,105,MELISSA.BAILEY,Melissa,Bailey,Melissa.Bailey@arraytest.com,,,,,,
,105,MICHELLE.BAILEY,Michelle,Bailey,Michelle.Bailey@arraytest.com,,,,,,
,105,MORGAN.BAILEY,Morgan,Bailey,Morgan.Bailey@arraytest.com,,,,,,
,105,NATALIE.BAILEY,Natalie,Bailey,Natalie.Bailey@arraytest.com,,,,,,
,105,NATHANIEL.BAILEY,Nathaniel,Bailey,Nathaniel.Bailey@arraytest.com,,,,,,
,105,NICOLE.BAILEY,Nicole,Bailey,Nicole.Bailey@arraytest.com,,,,,,
,105,OLIVIA.BAILEY,Olivia,Bailey,Olivia.Bailey@arraytest.com,,,,,,
,105,PAIGE.BAILEY,Paige,Bailey,Paige.Bailey@arraytest.com,,,,,,
,105,PATRICK.BAILEY,Patrick,Bailey,Patrick.Bailey@arraytest.com,,,,,,
,105,RACHEL.BAILEY,Rachel,Bailey,Rachel.Bailey@arraytest.com,,,,,,
,105,RICHARD.BAILEY,Richard,Bailey,Richard.Bailey@arraytest.com,,,,,,
,105,RILEY.BAILEY,Riley,Bailey,Riley.Bailey@arraytest.com,,,,,,
,105,SARA.BAILEY,Sara,Bailey,Sara.Bailey@arraytest.com,,,,,,
,105,SAVANNAH.BAILEY,Savannah,Bailey,Savannah.Bailey@arraytest.com,,,,,,
,105,SEAN.BAILEY,Sean,Bailey,Sean.Bailey@arraytest.com,,,,,,
,105,SETH.BAILEY,Seth,Bailey,Seth.Bailey@arraytest.com,,,,,,
,105,SHELBY.BAILEY,Shelby,Bailey,Shelby.Bailey@arraytest.com,,,,,,
,105,STEPHANIE.BAILEY,Stephanie,Bailey,Stephanie.Bailey@arraytest.com,,,,,,
,105,STEVEN.BAILEY,Steven,Bailey,Steven.Bailey@arraytest.com,,,,,,
,105,SYDNEY.BAILEY,Sydney,Bailey,Sydney.Bailey@arraytest.com,,,,,,
,105,TAYLOR.BAILEY,Taylor,Bailey,Taylor.Bailey@arraytest.com,,,,,,
,105,TIMOTHY.BAILEY,Timothy,Bailey,Timothy.Bailey@arraytest.com,,,,,,
,105,TRINITY.BAILEY,Trinity,Bailey,Trinity.Bailey@arraytest.com,,,,,,
,105,VICTORIA.BAILEY,Victoria,Bailey,Victoria.Bailey@arraytest.com,,,,,,
,105,XAVIER.BAILEY,Xavier,Bailey,Xavier.Bailey@arraytest.com,,,,,,
,105,ZOE.BAILEY,Zoe,Bailey,Zoe.Bailey@arraytest.com,,,,,,
,105,AARON.BAKER,Aaron,Baker,Aaron.Baker@arraytest.com,,,,,,
,105,ADAM.BAKER,Adam,Baker,Adam.Baker@arraytest.com,,,,,,
,105,MACKENZIE.EDWARDS,Mackenzie,Edwards,Mackenzie.Edwards@arraytest.com,,,,,,
,105,MADELINE.EDWARDS,Madeline,Edwards,Madeline.Edwards@arraytest.com,,,,,,
,105,MARCUS.EDWARDS,Marcus,Edwards,Marcus.Edwards@arraytest.com,,,,,,
,105,MARIA.EDWARDS,Maria,Edwards,Maria.Edwards@arraytest.com,,,,,,
,105,MARY.EDWARDS,Mary,Edwards,Mary.Edwards@arraytest.com,,,,,,
,105,MASON.EDWARDS,Mason,Edwards,Mason.Edwards@arraytest.com,,,,,,
,105,MIGUEL.EDWARDS,Miguel,Edwards,Miguel.Edwards@arraytest.com,,,,,,
,105,MORGAN.EDWARDS,Morgan,Edwards,Morgan.Edwards@arraytest.com,,,,,,
,105,NATALIE.EDWARDS,Natalie,Edwards,Natalie.Edwards@arraytest.com,,,,,,
,105,NATHAN.EDWARDS,Nathan,Edwards,Nathan.Edwards@arraytest.com,,,,,,
,105,NOAH.EDWARDS,Noah,Edwards,Noah.Edwards@arraytest.com,,,,,,
,105,RICHARD.EDWARDS,Richard,Edwards,Richard.Edwards@arraytest.com,,,,,,
,105,SAMUEL.EDWARDS,Samuel,Edwards,Samuel.Edwards@arraytest.com,,,,,,
,105,SARA.EDWARDS,Sara,Edwards,Sara.Edwards@arraytest.com,,,,,,
,105,SAVANNAH.EDWARDS,Savannah,Edwards,Savannah.Edwards@arraytest.com,,,,,,
,105,SEAN.EDWARDS,Sean,Edwards,Sean.Edwards@arraytest.com,,,,,,
,105,SETH.EDWARDS,Seth,Edwards,Seth.Edwards@arraytest.com,,,,,,
,105,SIERRA.EDWARDS,Sierra,Edwards,Sierra.Edwards@arraytest.com,,,,,,
,105,SOPHIA.EDWARDS,Sophia,Edwards,Sophia.Edwards@arraytest.com,,,,,,
,105,STEPHANIE.EDWARDS,Stephanie,Edwards,Stephanie.Edwards@arraytest.com,,,,,,
,105,SYDNEY.EDWARDS,Sydney,Edwards,Sydney.Edwards@arraytest.com,,,,,,
,105,THOMAS.EDWARDS,Thomas,Edwards,Thomas.Edwards@arraytest.com,,,,,,
,105,TIMOTHY.EDWARDS,Timothy,Edwards,Timothy.Edwards@arraytest.com,,,,,,
,105,WYATT.EDWARDS,Wyatt,Edwards,Wyatt.Edwards@arraytest.com,,,,,,
,105,XAVIER.EDWARDS,Xavier,Edwards,Xavier.Edwards@arraytest.com,,,,,,
,105,CARLA.ELDRIDGE,Carla,Eldridge,Carla.Eldridge@arraytest.com,,,,,,
,105,RUTH.ELLERBROCK,Ruth,Ellerbrock,Ruth.Ellerbrock@arraytest.com,,,,,,
,105,CAROL.ELLIOTT,Carol,Elliott,Carol.Elliott@arraytest.com,,,,,,
,105,SHANNON.ELLIOTT,Shannon,Elliott,Shannon.Elliott@arraytest.com,,,,,,
,105,JAUNA.ELSON,Jauna,Elson,Jauna.Elson@arraytest.com,,,,,,
,105,MICHAEL.EMANUEL,Michael,Emanuel,Michael.Emanuel@arraytest.com,,,,,,
,105,TERRY.EMINHIZER,Terry,Eminhizer,Terry.Eminhizer@arraytest.com,,,,,,
,105,JOHN.EMORY,John,Emory,John.Emory@arraytest.com,,,,,,
,105,MICHAEL.ENTIN,Michael,Entin,Michael.Entin@arraytest.com,,,,,,
,105,GAIL.ERICKSON,Gail,Erickson,Gail.Erickson@arraytest.com,,,,,,
,105,GREGORY.ERICKSON,Gregory,Erickson,Gregory.Erickson@arraytest.com,,,,,,
,105,MARK.ERICKSON,Mark,Erickson,Mark.Erickson@arraytest.com,,,,,,
,105,EBRU.ERSAN,Ebru,Ersan,Ebru.Ersan@arraytest.com,,,,,,
,105,MARTHA.ESPINOZA,Martha,Espinoza,Martha.Espinoza@arraytest.com,,,,,,
,105,JULIE.ESTES,Julie,Estes,Julie.Estes@arraytest.com,,,,,,
,105,JANETH.ESTEVES,Janeth,Esteves,Janeth.Esteves@arraytest.com,,,,,,
,105,AARON.EVANS,Aaron,Evans,Aaron.Evans@arraytest.com,,,,,,
,105,ADAM.EVANS,Adam,Evans,Adam.Evans@arraytest.com,,,,,,
,105,ALEX.EVANS,Alex,Evans,Alex.Evans@arraytest.com,,,,,,
,105,ALEXANDRA.EVANS,Alexandra,Evans,Alexandra.Evans@arraytest.com,,,,,,
,105,ALLISON.EVANS,Allison,Evans,Allison.Evans@arraytest.com,,,,,,
,105,AMANDA.EVANS,Amanda,Evans,Amanda.Evans@arraytest.com,,,,,,
,105,AMBER.EVANS,Amber,Evans,Amber.Evans@arraytest.com,,,,,,
,105,ANDREA.EVANS,Andrea,Evans,Andrea.Evans@arraytest.com,,,,,,
,105,ANGEL.EVANS,Angel,Evans,Angel.Evans@arraytest.com,,,,,,
,105,ANN.EVANS,Ann,Evans,Ann.Evans@arraytest.com,,,,,,
,105,BAILEY.EVANS,Bailey,Evans,Bailey.Evans@arraytest.com,,,,,,
,105,BLAKE.EVANS,Blake,Evans,Blake.Evans@arraytest.com,,,,,,
,105,CALEB.EVANS,Caleb,Evans,Caleb.Evans@arraytest.com,,,,,,
,105,CARLOS.EVANS,Carlos,Evans,Carlos.Evans@arraytest.com,,,,,,
,105,CHARLES.EVANS,Charles,Evans,Charles.Evans@arraytest.com,,,,,,
,105,CHLOE.EVANS,Chloe,Evans,Chloe.Evans@arraytest.com,,,,,,
,105,CONNOR.EVANS,Connor,Evans,Connor.Evans@arraytest.com,,,,,,
,105,COURTNEY.EVANS,Courtney,Evans,Courtney.Evans@arraytest.com,,,,,,
,105,DALTON.EVANS,Dalton,Evans,Dalton.Evans@arraytest.com,,,,,,
,105,DEVIN.EVANS,Devin,Evans,Devin.Evans@arraytest.com,,,,,,
,105,EDUARDO.EVANS,Eduardo,Evans,Eduardo.Evans@arraytest.com,,,,,,
,105,ELIJAH.EVANS,Elijah,Evans,Elijah.Evans@arraytest.com,,,,,,
,105,CHERYL.BLANCO,Cheryl,Blanco,Cheryl.Blanco@arraytest.com,,,,,,
,105,CLINTON.BLANCO,Clinton,Blanco,Clinton.Blanco@arraytest.com,,,,,,
,105,CRAIG.BLANCO,Craig,Blanco,Craig.Blanco@arraytest.com,,,,,,
,105,DAISY.BLANCO,Daisy,Blanco,Daisy.Blanco@arraytest.com,,,,,,
,105,DANA.BLANCO,Dana,Blanco,Dana.Blanco@arraytest.com,,,,,,
,105,DANIEL.BLANCO,Daniel,Blanco,Daniel.Blanco@arraytest.com,,,,,,
,105,DANNY.BLANCO,Danny,Blanco,Danny.Blanco@arraytest.com,,,,,,
,105,DARREN.BLANCO,Darren,Blanco,Darren.Blanco@arraytest.com,,,,,,
,105,DEANNA.BLANCO,Deanna,Blanco,Deanna.Blanco@arraytest.com,,,,,,
,105,EBONY.BLANCO,Ebony,Blanco,Ebony.Blanco@arraytest.com,,,,,,
,105,ERIK.BLANCO,Erik,Blanco,Erik.Blanco@arraytest.com,,,,,,
,105,ERIKA.BLANCO,Erika,Blanco,Erika.Blanco@arraytest.com,,,,,,
,105,FELICIA.BLANCO,Felicia,Blanco,Felicia.Blanco@arraytest.com,,,,,,
,105,FRANCIS.BLANCO,Francis,Blanco,Francis.Blanco@arraytest.com,,,,,,
,105,FRANK.BLANCO,Frank,Blanco,Frank.Blanco@arraytest.com,,,,,,
,105,GARY.BLANCO,Gary,Blanco,Gary.Blanco@arraytest.com,,,,,,
,105,GINA.BLANCO,Gina,Blanco,Gina.Blanco@arraytest.com,,,,,,
,105,HECTOR.BLANCO,Hector,Blanco,Hector.Blanco@arraytest.com,,,,,,
,105,JACQUELYN.BLANCO,Jacquelyn,Blanco,Jacquelyn.Blanco@arraytest.com,,,,,,
,105,JAIME.BLANCO,Jaime,Blanco,Jaime.Blanco@arraytest.com,,,,,,
,105,JAMIE.BLANCO,Jamie,Blanco,Jamie.Blanco@arraytest.com,,,,,,
,105,JESSIE.BLANCO,Jessie,Blanco,Jessie.Blanco@arraytest.com,,,,,,
,105,JÉSUS.BLANCO,Jésus,Blanco,Jésus.Blanco@arraytest.com,,,,,,
,105,JILL.BLANCO,Jill,Blanco,Jill.Blanco@arraytest.com,,,,,,
,105,JIMMY.BLANCO,Jimmy,Blanco,Jimmy.Blanco@arraytest.com,,,,,,
,105,JOANNA.BLANCO,Joanna,Blanco,Joanna.Blanco@arraytest.com,,,,,,
,105,JOE.BLANCO,Joe,Blanco,Joe.Blanco@arraytest.com,,,,,,
,105,JOSUE.BLANCO,Josue,Blanco,Josue.Blanco@arraytest.com,,,,,,
,105,JULIO.BLANCO,Julio,Blanco,Julio.Blanco@arraytest.com,,,,,,
,105,KARI.BLANCO,Kari,Blanco,Kari.Blanco@arraytest.com,,,,,,
,105,KELLIE.BLANCO,Kellie,Blanco,Kellie.Blanco@arraytest.com,,,,,,
,105,KENDRA.BLANCO,Kendra,Blanco,Kendra.Blanco@arraytest.com,,,,,,
,105,KRISTA.BLANCO,Krista,Blanco,Krista.Blanco@arraytest.com,,,,,,
,105,KRISTI.BLANCO,Kristi,Blanco,Kristi.Blanco@arraytest.com,,,,,,
,105,KRISTINE.BLANCO,Kristine,Blanco,Kristine.Blanco@arraytest.com,,,,,,
,105,KRISTY.BLANCO,Kristy,Blanco,Kristy.Blanco@arraytest.com,,,,,,
,105,LANCE.BLANCO,Lance,Blanco,Lance.Blanco@arraytest.com,,,,,,
,105,LARRY.BLANCO,Larry,Blanco,Larry.Blanco@arraytest.com,,,,,,
,105,LAWRENCE.BLANCO,Lawrence,Blanco,Lawrence.Blanco@arraytest.com,,,,,,
,105,LEE.BLANCO,Lee,Blanco,Lee.Blanco@arraytest.com,,,,,,
,105,LESLIE.BLANCO,Leslie,Blanco,Leslie.Blanco@arraytest.com,,,,,,
,105,LORI.BLANCO,Lori,Blanco,Lori.Blanco@arraytest.com,,,,,,
,105,MALLORY.BLANCO,Mallory,Blanco,Mallory.Blanco@arraytest.com,,,,,,
,105,MARC.BLANCO,Marc,Blanco,Marc.Blanco@arraytest.com,,,,,,
,105,MATHEW.BLANCO,Mathew,Blanco,Mathew.Blanco@arraytest.com,,,,,,
,105,MAX.BLANCO,Max,Blanco,Max.Blanco@arraytest.com,,,,,,
,105,MEGHAN.BLANCO,Meghan,Blanco,Meghan.Blanco@arraytest.com,,,,,,
,105,MICHEAL.BLANCO,Micheal,Blanco,Micheal.Blanco@arraytest.com,,,,,,
,105,MICHELE.BLANCO,Michele,Blanco,Michele.Blanco@arraytest.com,,,,,,
,105,MONIQUE.BLANCO,Monique,Blanco,Monique.Blanco@arraytest.com,,,,,,
,105,NAOMI.BLANCO,Naomi,Blanco,Naomi.Blanco@arraytest.com,,,,,,
,105,NATASHA.BLANCO,Natasha,Blanco,Natasha.Blanco@arraytest.com,,,,,,
,105,NEIL.BLANCO,Neil,Blanco,Neil.Blanco@arraytest.com,,,,,,
,105,NELSON.BLANCO,Nelson,Blanco,Nelson.Blanco@arraytest.com,,,,,,
,105,ORLANDO.BLANCO,Orlando,Blanco,Orlando.Blanco@arraytest.com,,,,,,
,105,PAULA.BLANCO,Paula,Blanco,Paula.Blanco@arraytest.com,,,,,,
,105,PEDRO.BLANCO,Pedro,Blanco,Pedro.Blanco@arraytest.com,,,,,,
,105,PHILIP.BLANCO,Philip,Blanco,Philip.Blanco@arraytest.com,,,,,,
,105,RANDALL.BLANCO,Randall,Blanco,Randall.Blanco@arraytest.com,,,,,,
,105,REBEKAH.BLANCO,Rebekah,Blanco,Rebekah.Blanco@arraytest.com,,,,,,
,105,REGINALD.BLANCO,Reginald,Blanco,Reginald.Blanco@arraytest.com,,,,,,
,105,RICKY.BLANCO,Ricky,Blanco,Ricky.Blanco@arraytest.com,,,,,,
,105,ROBYN.BLANCO,Robyn,Blanco,Robyn.Blanco@arraytest.com,,,,,,
,105,RODNEY.BLANCO,Rodney,Blanco,Rodney.Blanco@arraytest.com,,,,,,
,105,ROSS.BLANCO,Ross,Blanco,Ross.Blanco@arraytest.com,,,,,,
,105,CLAYTON.CAI,Clayton,Cai,Clayton.Cai@arraytest.com,,,,,,
,105,COLIN.CAI,Colin,Cai,Colin.Cai@arraytest.com,,,,,,
,105,COLLEEN.CAI,Colleen,Cai,Colleen.Cai@arraytest.com,,,,,,
,105,CRYSTAL.CAI,Crystal,Cai,Crystal.Cai@arraytest.com,,,,,,
,105,CURTIS.CAI,Curtis,Cai,Curtis.Cai@arraytest.com,,,,,,
,105,DENNIS.CAI,Dennis,Cai,Dennis.Cai@arraytest.com,,,,,,
,105,ERICA.CAI,Erica,Cai,Erica.Cai@arraytest.com,,,,,,
,105,GILBERT.CAI,Gilbert,Cai,Gilbert.Cai@arraytest.com,,,,,,
,105,GLENN.CAI,Glenn,Cai,Glenn.Cai@arraytest.com,,,,,,
,105,HEATHER.CAI,Heather,Cai,Heather.Cai@arraytest.com,,,,,,
,105,JACLYN.CAI,Jaclyn,Cai,Jaclyn.Cai@arraytest.com,,,,,,
,105,JAKE.CAI,Jake,Cai,Jake.Cai@arraytest.com,,,,,,
,105,JAMIE.CAI,Jamie,Cai,Jamie.Cai@arraytest.com,,,,,,
,105,JEFFERY.CAI,Jeffery,Cai,Jeffery.Cai@arraytest.com,,,,,,
,105,JENNY.CAI,Jenny,Cai,Jenny.Cai@arraytest.com,,,,,,
,105,JESSIE.CAI,Jessie,Cai,Jessie.Cai@arraytest.com,,,,,,
,105,JON.CAI,Jon,Cai,Jon.Cai@arraytest.com,,,,,,
,105,JORGE.CAI,Jorge,Cai,Jorge.Cai@arraytest.com,,,,,,
,105,KAREN.CAI,Karen,Cai,Karen.Cai@arraytest.com,,,,,,
,105,KELLI.CAI,Kelli,Cai,Kelli.Cai@arraytest.com,,,,,,
,105,KELVIN.CAI,Kelvin,Cai,Kelvin.Cai@arraytest.com,,,,,,
,105,KRISTEN.CAI,Kristen,Cai,Kristen.Cai@arraytest.com,,,,,,
,105,KRYSTAL.CAI,Krystal,Cai,Krystal.Cai@arraytest.com,,,,,,
,105,LACEY.CAI,Lacey,Cai,Lacey.Cai@arraytest.com,,,,,,
,105,LAURA.CAI,Laura,Cai,Laura.Cai@arraytest.com,,,,,,
,105,LEAH.CAI,Leah,Cai,Leah.Cai@arraytest.com,,,,,,
,105,LISA.CAI,Lisa,Cai,Lisa.Cai@arraytest.com,,,,,,
,105,MANDY.CAI,Mandy,Cai,Mandy.Cai@arraytest.com,,,,,,
,105,MARSHALL.CAI,Marshall,Cai,Marshall.Cai@arraytest.com,,,,,,
,105,MICAH.CAI,Micah,Cai,Micah.Cai@arraytest.com,,,,,,
,105,OMAR.CAI,Omar,Cai,Omar.Cai@arraytest.com,,,,,,
,105,RAFAEL.CAI,Rafael,Cai,Rafael.Cai@arraytest.com,,,,,,
,105,RAMÓN.CAI,Ramón,Cai,Ramón.Cai@arraytest.com,,,,,,
,105,ROGER.CAI,Roger,Cai,Roger.Cai@arraytest.com,,,,,,
,105,RONNIE.CAI,Ronnie,Cai,Ronnie.Cai@arraytest.com,,,,,,
,105,ROSA.CAI,Rosa,Cai,Rosa.Cai@arraytest.com,,,,,,
,105,SHANNON.CAI,Shannon,Cai,Shannon.Cai@arraytest.com,,,,,,
,105,STACEY.CAI,Stacey,Cai,Stacey.Cai@arraytest.com,,,,,,
,105,STEVE.CAI,Steve,Cai,Steve.Cai@arraytest.com,,,,,,
,105,SUSAN.CAI,Susan,Cai,Susan.Cai@arraytest.com,,,,,,
,105,SUZANNE.CAI,Suzanne,Cai,Suzanne.Cai@arraytest.com,,,,,,
,105,TAMARA.CAI,Tamara,Cai,Tamara.Cai@arraytest.com,,,,,,
,105,TIFFANY.CAI,Tiffany,Cai,Tiffany.Cai@arraytest.com,,,,,,
,105,TRISHA.CAI,Trisha,Cai,Trisha.Cai@arraytest.com,,,,,,
,105,VALERIE.CAI,Valerie,Cai,Valerie.Cai@arraytest.com,,,,,,
,105,VINCENT.CAI,Vincent,Cai,Vincent.Cai@arraytest.com,,,,,,
,105,WARREN.CAI,Warren,Cai,Warren.Cai@arraytest.com,,,,,,
,105,WESLEY.CAI,Wesley,Cai,Wesley.Cai@arraytest.com,,,,,,
,105,WILLIE.CAI,Willie,Cai,Willie.Cai@arraytest.com,,,,,,
,105,RYAN.CALAFATO,Ryan,Calafato,Ryan.Calafato@arraytest.com,,,,,,
,105,MARI.CALDWELL,Mari,Caldwell,Mari.Caldwell@arraytest.com,,,,,,
,105,SYLVIA.CALDWELL,Sylvia,Caldwell,Sylvia.Caldwell@arraytest.com,,,,,,
,105,BARBARA.CALONE,Barbara,Calone,Barbara.Calone@arraytest.com,,,,,,
,105,LINDSEY.CAMACHO,Lindsey,Camacho,Lindsey.Camacho@arraytest.com,,,,,,
,105,GUSTAVO.CAMARGO,Gustavo,Camargo,Gustavo.Camargo@arraytest.com,,,,,,
,105,DEEDEE.CAMERON,DeeDee,Cameron,DeeDee.Cameron@arraytest.com,,,,,,
,105,AARON.CAMPBELL,Aaron,Campbell,Aaron.Campbell@arraytest.com,,,,,,
,105,ADAM.CAMPBELL,Adam,Campbell,Adam.Campbell@arraytest.com,,,,,,
,105,ALEX.CAMPBELL,Alex,Campbell,Alex.Campbell@arraytest.com,,,,,,
,105,ALEXANDRA.CAMPBELL,Alexandra,Campbell,Alexandra.Campbell@arraytest.com,,,,,,
,105,ALLISON.CAMPBELL,Allison,Campbell,Allison.Campbell@arraytest.com,,,,,,
,105,AMANDA.CAMPBELL,Amanda,Campbell,Amanda.Campbell@arraytest.com,,,,,,
,105,AMBER.CAMPBELL,Amber,Campbell,Amber.Campbell@arraytest.com,,,,,,
,105,ANDREA.CAMPBELL,Andrea,Campbell,Andrea.Campbell@arraytest.com,,,,,,
,105,ANGEL.CAMPBELL,Angel,Campbell,Angel.Campbell@arraytest.com,,,,,,
,105,BLAKE.CAMPBELL,Blake,Campbell,Blake.Campbell@arraytest.com,,,,,,
,105,CALEB.CAMPBELL,Caleb,Campbell,Caleb.Campbell@arraytest.com,,,,,,
,105,CARLOS.CAMPBELL,Carlos,Campbell,Carlos.Campbell@arraytest.com,,,,,,
,105,CHLOE.CAMPBELL,Chloe,Campbell,Chloe.Campbell@arraytest.com,,,,,,
,105,MICHELLE.COOPER,Michelle,Cooper,Michelle.Cooper@arraytest.com,,,,,,
,105,MORGAN.COOPER,Morgan,Cooper,Morgan.Cooper@arraytest.com,,,,,,
,105,NATALIE.COOPER,Natalie,Cooper,Natalie.Cooper@arraytest.com,,,,,,
,105,NATHANIEL.COOPER,Nathaniel,Cooper,Nathaniel.Cooper@arraytest.com,,,,,,
,105,NICOLE.COOPER,Nicole,Cooper,Nicole.Cooper@arraytest.com,,,,,,
,105,OLIVIA.COOPER,Olivia,Cooper,Olivia.Cooper@arraytest.com,,,,,,
,105,PAIGE.COOPER,Paige,Cooper,Paige.Cooper@arraytest.com,,,,,,
,105,RICHARD.COOPER,Richard,Cooper,Richard.Cooper@arraytest.com,,,,,,
,105,RILEY.COOPER,Riley,Cooper,Riley.Cooper@arraytest.com,,,,,,
,105,SARA.COOPER,Sara,Cooper,Sara.Cooper@arraytest.com,,,,,,
,105,SCOTT.COOPER,Scott,Cooper,Scott.Cooper@arraytest.com,,,,,,
,105,SEAN.COOPER,Sean,Cooper,Sean.Cooper@arraytest.com,,,,,,
,105,SEBASTIAN.COOPER,Sebastian,Cooper,Sebastian.Cooper@arraytest.com,,,,,,
,105,SHELBY.COOPER,Shelby,Cooper,Shelby.Cooper@arraytest.com,,,,,,
,105,STEPHANIE.COOPER,Stephanie,Cooper,Stephanie.Cooper@arraytest.com,,,,,,
,105,STEVEN.COOPER,Steven,Cooper,Steven.Cooper@arraytest.com,,,,,,
,105,SYDNEY.COOPER,Sydney,Cooper,Sydney.Cooper@arraytest.com,,,,,,
,105,TAYLOR.COOPER,Taylor,Cooper,Taylor.Cooper@arraytest.com,,,,,,
,105,TIMOTHY.COOPER,Timothy,Cooper,Timothy.Cooper@arraytest.com,,,,,,
,105,TRINITY.COOPER,Trinity,Cooper,Trinity.Cooper@arraytest.com,,,,,,
,105,VICTORIA.COOPER,Victoria,Cooper,Victoria.Cooper@arraytest.com,,,,,,
,105,XAVIER.COOPER,Xavier,Cooper,Xavier.Cooper@arraytest.com,,,,,,
,105,ZOE.COOPER,Zoe,Cooper,Zoe.Cooper@arraytest.com,,,,,,
,105,DEBRA.CORE,Debra,Core,Debra.Core@arraytest.com,,,,,,
,105,EVA.CORETS,Eva,Corets,Eva.Corets@arraytest.com,,,,,,
,105,MARLIN.CORIELL,Marlin,Coriell,Marlin.Coriell@arraytest.com,,,,,,
,105,RYAN.CORNELSEN,Ryan,Cornelsen,Ryan.Cornelsen@arraytest.com,,,,,,
,105,BRUNO.COSTADASILVA,Bruno,Costa Da Silva,Bruno.Costa Da Silva@arraytest.com,,,,,,
,105,ABIGAIL.COX,Abigail,Cox,Abigail.Cox@arraytest.com,,,,,,
,105,ADRIAN.COX,Adrian,Cox,Adrian.Cox@arraytest.com,,,,,,
,105,ALEX.COX,Alex,Cox,Alex.Cox@arraytest.com,,,,,,
,105,ALEXA.COX,Alexa,Cox,Alexa.Cox@arraytest.com,,,,,,
,105,ALEXANDRA.COX,Alexandra,Cox,Alexandra.Cox@arraytest.com,,,,,,
,105,ALEXANDRIA.COX,Alexandria,Cox,Alexandria.Cox@arraytest.com,,,,,,
,105,ALLISON.COX,Allison,Cox,Allison.Cox@arraytest.com,,,,,,
,105,ALYSSA.COX,Alyssa,Cox,Alyssa.Cox@arraytest.com,,,,,,
,105,AMANDA.COX,Amanda,Cox,Amanda.Cox@arraytest.com,,,,,,
,105,ANDREA.COX,Andrea,Cox,Andrea.Cox@arraytest.com,,,,,,
,105,ANGEL.COX,Angel,Cox,Angel.Cox@arraytest.com,,,,,,
,105,ANGELA.COX,Angela,Cox,Angela.Cox@arraytest.com,,,,,,
,105,ANNA.COX,Anna,Cox,Anna.Cox@arraytest.com,,,,,,
,105,ARIANA.COX,Ariana,Cox,Ariana.Cox@arraytest.com,,,,,,
,105,ARIANNA.COX,Arianna,Cox,Arianna.Cox@arraytest.com,,,,,,
,105,BAILEY.COX,Bailey,Cox,Bailey.Cox@arraytest.com,,,,,,
,105,BRIAN.COX,Brian,Cox,Brian.Cox@arraytest.com,,,,,,
,105,BRIANNA.COX,Brianna,Cox,Brianna.Cox@arraytest.com,,,,,,
,105,BRYAN.COX,Bryan,Cox,Bryan.Cox@arraytest.com,,,,,,
,105,BRYCE.COX,Bryce,Cox,Bryce.Cox@arraytest.com,,,,,,
,105,CAITLIN.COX,Caitlin,Cox,Caitlin.Cox@arraytest.com,,,,,,
,105,CARLOS.COX,Carlos,Cox,Carlos.Cox@arraytest.com,,,,,,
,105,CAROL.COX,Carol,Cox,Carol.Cox@arraytest.com,,,,,,
,105,CATHERINE.COX,Catherine,Cox,Catherine.Cox@arraytest.com,,,,,,
,105,CHARLES.COX,Charles,Cox,Charles.Cox@arraytest.com,,,,,,
,105,CHASE.COX,Chase,Cox,Chase.Cox@arraytest.com,,,,,,
,105,CHLOE.COX,Chloe,Cox,Chloe.Cox@arraytest.com,,,,,,
,105,CHRISTINA.COX,Christina,Cox,Christina.Cox@arraytest.com,,,,,,
,105,CODY.COX,Cody,Cox,Cody.Cox@arraytest.com,,,,,,
,105,COLE.COX,Cole,Cox,Cole.Cox@arraytest.com,,,,,,
,105,DALTON.COX,Dalton,Cox,Dalton.Cox@arraytest.com,,,,,,
,105,DANIELLE.COX,Danielle,Cox,Danielle.Cox@arraytest.com,,,,,,
,105,DESTINY.COX,Destiny,Cox,Destiny.Cox@arraytest.com,,,,,,
,105,DEVIN.COX,Devin,Cox,Devin.Cox@arraytest.com,,,,,,
,105,EDUARDO.COX,Eduardo,Cox,Eduardo.Cox@arraytest.com,,,,,,
,105,EMMA.COX,Emma,Cox,Emma.Cox@arraytest.com,,,,,,
,105,ERIN.COX,Erin,Cox,Erin.Cox@arraytest.com,,,,,,
,105,EVAN.COX,Evan,Cox,Evan.Cox@arraytest.com,,,,,,
,105,GABRIELLA.COX,Gabriella,Cox,Gabriella.Cox@arraytest.com,,,,,,
,105,GABRIELLE.COX,Gabrielle,Cox,Gabrielle.Cox@arraytest.com,,,,,,
,105,GABRIELLA.KING,Gabriella,King,Gabriella.King@arraytest.com,,,,,,
,105,GABRIELLE.KING,Gabrielle,King,Gabrielle.King@arraytest.com,,,,,,
,105,HAILEY.KING,Hailey,King,Hailey.King@arraytest.com,,,,,,
,105,HUNTER.KING,Hunter,King,Hunter.King@arraytest.com,,,,,,
,105,IAN.KING,Ian,King,Ian.King@arraytest.com,,,,,,
,105,ISAAC.KING,Isaac,King,Isaac.King@arraytest.com,,,,,,
,105,ISABELLA.KING,Isabella,King,Isabella.King@arraytest.com,,,,,,
,105,ISAIAH.KING,Isaiah,King,Isaiah.King@arraytest.com,,,,,,
,105,JACK.KING,Jack,King,Jack.King@arraytest.com,,,,,,
,105,JACKSON.KING,Jackson,King,Jackson.King@arraytest.com,,,,,,
,105,JAN.KING,Jan,King,Jan.King@arraytest.com,,,,,,
,105,JASON.KING,Jason,King,Jason.King@arraytest.com,,,,,,
,105,JENNA.KING,Jenna,King,Jenna.King@arraytest.com,,,,,,
,105,JENNIFER.KING,Jennifer,King,Jennifer.King@arraytest.com,,,,,,
,105,JEREMIAH.KING,Jeremiah,King,Jeremiah.King@arraytest.com,,,,,,
,105,JESSE.KING,Jesse,King,Jesse.King@arraytest.com,,,,,,
,105,JOAN.KING,Joan,King,Joan.King@arraytest.com,,,,,,
,105,JONATHAN.KING,Jonathan,King,Jonathan.King@arraytest.com,,,,,,
,105,JORDAN.KING,Jordan,King,Jordan.King@arraytest.com,,,,,,
,105,JOSE.KING,Jose,King,Jose.King@arraytest.com,,,,,,
,105,JULIA.KING,Julia,King,Julia.King@arraytest.com,,,,,,
,105,KAITLYN.KING,Kaitlyn,King,Kaitlyn.King@arraytest.com,,,,,,
,105,KATELYN.KING,Katelyn,King,Katelyn.King@arraytest.com,,,,,,
,105,KATHERINE.KING,Katherine,King,Katherine.King@arraytest.com,,,,,,
,105,KAYLEE.KING,Kaylee,King,Kaylee.King@arraytest.com,,,,,,
,105,KEVIN.KING,Kevin,King,Kevin.King@arraytest.com,,,,,,
,105,KIRK.KING,Kirk,King,Kirk.King@arraytest.com,,,,,,
,105,LOGAN.KING,Logan,King,Logan.King@arraytest.com,,,,,,
,105,LUCAS.KING,Lucas,King,Lucas.King@arraytest.com,,,,,,
,105,LUKE.KING,Luke,King,Luke.King@arraytest.com,,,,,,
,105,MACKENZIE.KING,Mackenzie,King,Mackenzie.King@arraytest.com,,,,,,
,105,MADELINE.KING,Madeline,King,Madeline.King@arraytest.com,,,,,,
,105,MARCUS.KING,Marcus,King,Marcus.King@arraytest.com,,,,,,
,105,MARIA.KING,Maria,King,Maria.King@arraytest.com,,,,,,
,105,MARY.KING,Mary,King,Mary.King@arraytest.com,,,,,,
,105,MASON.KING,Mason,King,Mason.King@arraytest.com,,,,,,
,105,MIGUEL.KING,Miguel,King,Miguel.King@arraytest.com,,,,,,
,105,MORGAN.KING,Morgan,King,Morgan.King@arraytest.com,,,,,,
,105,NATALIE.KING,Natalie,King,Natalie.King@arraytest.com,,,,,,
,105,NATHAN.KING,Nathan,King,Nathan.King@arraytest.com,,,,,,
,105,NOAH.KING,Noah,King,Noah.King@arraytest.com,,,,,,
,105,REBECCA.KING,Rebecca,King,Rebecca.King@arraytest.com,,,,,,
,105,RICHARD.KING,Richard,King,Richard.King@arraytest.com,,,,,,
,105,ROBERT.KING,Robert,King,Robert.King@arraytest.com,,,,,,
,105,RUSSELL.KING,Russell,King,Russell.King@arraytest.com,,,,,,
,105,SAMUEL.KING,Samuel,King,Samuel.King@arraytest.com,,,,,,
,105,SARA.KING,Sara,King,Sara.King@arraytest.com,,,,,,
,105,SAVANNAH.KING,Savannah,King,Savannah.King@arraytest.com,,,,,,
,105,SEAN.KING,Sean,King,Sean.King@arraytest.com,,,,,,
,105,SETH.KING,Seth,King,Seth.King@arraytest.com,,,,,,
,105,SOPHIA.KING,Sophia,King,Sophia.King@arraytest.com,,,,,,
,105,STEPHANIE.KING,Stephanie,King,Stephanie.King@arraytest.com,,,,,,
,105,SYDNEY.KING,Sydney,King,Sydney.King@arraytest.com,,,,,,
,105,THOMAS.KING,Thomas,King,Thomas.King@arraytest.com,,,,,,
,105,TIMOTHY.KING,Timothy,King,Timothy.King@arraytest.com,,,,,,
,105,WYATT.KING,Wyatt,King,Wyatt.King@arraytest.com,,,,,,
,105,XAVIER.KING,Xavier,King,Xavier.King@arraytest.com,,,,,,
,105,ANTON.KIRILOV,Anton,Kirilov,Anton.Kirilov@arraytest.com,,,,,,
,105,SANDRA.KITT,Sandra,Kitt,Sandra.Kitt@arraytest.com,,,,,,
,105,CHRISTIAN.KLEINERMAN,Christian,Kleinerman,Christian.Kleinerman@arraytest.com,,,,,,
,105,ANDREW.KOBYLINSKI,Andrew,Kobylinski,Andrew.Kobylinski@arraytest.com,,,,,,
,105,REED.KOCH,Reed,Koch,Reed.Koch@arraytest.com,,,,,,
,105,SUNIL.KODURI,Sunil,Koduri,Sunil.Koduri@arraytest.com,,,,,,
,105,KIRK.KOENIGSBAUER,Kirk,Koenigsbauer,Kirk.Koenigsbauer@arraytest.com,,,,,,
,105,EUGENE.KOGAN,Eugene,Kogan,Eugene.Kogan@arraytest.com,,,,,,
,105,PAUL.KOMOSINSKI,Paul,Komosinski,Paul.Komosinski@arraytest.com,,,,,,
,105,SCOTT.KONERSMANN,Scott,Konersmann,Scott.Konersmann@arraytest.com,,,,,,
,105,JOY.KOSKI,Joy,Koski,Joy.Koski@arraytest.com,,,,,,
,105,NATHANIEL.PETERSON,Nathaniel,Peterson,Nathaniel.Peterson@arraytest.com,,,,,,
,105,NICOLE.PETERSON,Nicole,Peterson,Nicole.Peterson@arraytest.com,,,,,,
,105,OLIVIA.PETERSON,Olivia,Peterson,Olivia.Peterson@arraytest.com,,,,,,
,105,PAIGE.PETERSON,Paige,Peterson,Paige.Peterson@arraytest.com,,,,,,
,105,PATRICK.PETERSON,Patrick,Peterson,Patrick.Peterson@arraytest.com,,,,,,
,105,RICHARD.PETERSON,Richard,Peterson,Richard.Peterson@arraytest.com,,,,,,
,105,RILEY.PETERSON,Riley,Peterson,Riley.Peterson@arraytest.com,,,,,,
,105,SARA.PETERSON,Sara,Peterson,Sara.Peterson@arraytest.com,,,,,,
,105,SAVANNAH.PETERSON,Savannah,Peterson,Savannah.Peterson@arraytest.com,,,,,,
,105,SEAN.PETERSON,Sean,Peterson,Sean.Peterson@arraytest.com,,,,,,
,105,SEBASTIAN.PETERSON,Sebastian,Peterson,Sebastian.Peterson@arraytest.com,,,,,,
,105,SHELBY.PETERSON,Shelby,Peterson,Shelby.Peterson@arraytest.com,,,,,,
,105,STEPHANIE.PETERSON,Stephanie,Peterson,Stephanie.Peterson@arraytest.com,,,,,,
,105,STEVEN.PETERSON,Steven,Peterson,Steven.Peterson@arraytest.com,,,,,,
,105,SYDNEY.PETERSON,Sydney,Peterson,Sydney.Peterson@arraytest.com,,,,,,
,105,TAYLOR.PETERSON,Taylor,Peterson,Taylor.Peterson@arraytest.com,,,,,,
,105,TIMOTHY.PETERSON,Timothy,Peterson,Timothy.Peterson@arraytest.com,,,,,,
,105,VICTORIA.PETERSON,Victoria,Peterson,Victoria.Peterson@arraytest.com,,,,,,
,105,XAVIER.PETERSON,Xavier,Peterson,Xavier.Peterson@arraytest.com,,,,,,
,105,ZOE.PETERSON,Zoe,Peterson,Zoe.Peterson@arraytest.com,,,,,,
,105,SARA.PETTENGILL,Sara,Pettengill,Sara.Pettengill@arraytest.com,,,,,,
,105,CAROL.PHILIPS,Carol,Philips,Carol.Philips@arraytest.com,,,,,,
,105,AARON.PHILLIPS,Aaron,Phillips,Aaron.Phillips@arraytest.com,,,,,,
,105,ADAM.PHILLIPS,Adam,Phillips,Adam.Phillips@arraytest.com,,,,,,
,105,ALEX.PHILLIPS,Alex,Phillips,Alex.Phillips@arraytest.com,,,,,,
,105,ALLISON.PHILLIPS,Allison,Phillips,Allison.Phillips@arraytest.com,,,,,,
,105,AMANDA.PHILLIPS,Amanda,Phillips,Amanda.Phillips@arraytest.com,,,,,,
,105,AMBER.PHILLIPS,Amber,Phillips,Amber.Phillips@arraytest.com,,,,,,
,105,ANDREA.PHILLIPS,Andrea,Phillips,Andrea.Phillips@arraytest.com,,,,,,
,105,ANGEL.PHILLIPS,Angel,Phillips,Angel.Phillips@arraytest.com,,,,,,
,105,BAILEY.PHILLIPS,Bailey,Phillips,Bailey.Phillips@arraytest.com,,,,,,
,105,BLAKE.PHILLIPS,Blake,Phillips,Blake.Phillips@arraytest.com,,,,,,
,105,CALEB.PHILLIPS,Caleb,Phillips,Caleb.Phillips@arraytest.com,,,,,,
,105,CARLOS.PHILLIPS,Carlos,Phillips,Carlos.Phillips@arraytest.com,,,,,,
,105,CHARLES.PHILLIPS,Charles,Phillips,Charles.Phillips@arraytest.com,,,,,,
,105,CHLOE.PHILLIPS,Chloe,Phillips,Chloe.Phillips@arraytest.com,,,,,,
,105,CONNOR.PHILLIPS,Connor,Phillips,Connor.Phillips@arraytest.com,,,,,,
,105,COURTNEY.PHILLIPS,Courtney,Phillips,Courtney.Phillips@arraytest.com,,,,,,
,105,DALTON.PHILLIPS,Dalton,Phillips,Dalton.Phillips@arraytest.com,,,,,,
,105,DEVIN.PHILLIPS,Devin,Phillips,Devin.Phillips@arraytest.com,,,,,,
,105,EDUARDO.PHILLIPS,Eduardo,Phillips,Eduardo.Phillips@arraytest.com,,,,,,
,105,EDWARD.PHILLIPS,Edward,Phillips,Edward.Phillips@arraytest.com,,,,,,
,105,ELIJAH.PHILLIPS,Elijah,Phillips,Elijah.Phillips@arraytest.com,,,,,,
,105,ERIC.PHILLIPS,Eric,Phillips,Eric.Phillips@arraytest.com,,,,,,
,105,EVAN.PHILLIPS,Evan,Phillips,Evan.Phillips@arraytest.com,,,,,,
,105,FERNANDO.PHILLIPS,Fernando,Phillips,Fernando.Phillips@arraytest.com,,,,,,
,105,GABRIEL.PHILLIPS,Gabriel,Phillips,Gabriel.Phillips@arraytest.com,,,,,,
,105,GABRIELLA.PHILLIPS,Gabriella,Phillips,Gabriella.Phillips@arraytest.com,,,,,,
,105,HAILEY.PHILLIPS,Hailey,Phillips,Hailey.Phillips@arraytest.com,,,,,,
,105,HALEY.PHILLIPS,Haley,Phillips,Haley.Phillips@arraytest.com,,,,,,
,105,HUNTER.PHILLIPS,Hunter,Phillips,Hunter.Phillips@arraytest.com,,,,,,
,105,IAN.PHILLIPS,Ian,Phillips,Ian.Phillips@arraytest.com,,,,,,
,105,ISAAC.PHILLIPS,Isaac,Phillips,Isaac.Phillips@arraytest.com,,,,,,
,105,ISABELLA.PHILLIPS,Isabella,Phillips,Isabella.Phillips@arraytest.com,,,,,,
,105,ISAIAH.PHILLIPS,Isaiah,Phillips,Isaiah.Phillips@arraytest.com,,,,,,
,105,JACK.PHILLIPS,Jack,Phillips,Jack.Phillips@arraytest.com,,,,,,
,105,JACKSON.PHILLIPS,Jackson,Phillips,Jackson.Phillips@arraytest.com,,,,,,
,105,JADA.PHILLIPS,Jada,Phillips,Jada.Phillips@arraytest.com,,,,,,
,105,GERALD.SUBRAM,Gerald,Subram,Gerald.Subram@arraytest.com,,,,,,
,105,HAROLD.SUBRAM,Harold,Subram,Harold.Subram@arraytest.com,,,,,,
,105,HEIDI.SUBRAM,Heidi,Subram,Heidi.Subram@arraytest.com,,,,,,
,105,HOLLY.SUBRAM,Holly,Subram,Holly.Subram@arraytest.com,,,,,,
,105,IVAN.SUBRAM,Ivan,Subram,Ivan.Subram@arraytest.com,,,,,,
,105,JANELLE.SUBRAM,Janelle,Subram,Janelle.Subram@arraytest.com,,,,,,
,105,JARROD.SUBRAM,Jarrod,Subram,Jarrod.Subram@arraytest.com,,,,,,
,105,JERMAINE.SUBRAM,Jermaine,Subram,Jermaine.Subram@arraytest.com,,,,,,
,105,JOE.SUBRAM,Joe,Subram,Joe.Subram@arraytest.com,,,,,,
,105,JOEL.SUBRAM,Joel,Subram,Joel.Subram@arraytest.com,,,,,,
,105,KARI.SUBRAM,Kari,Subram,Kari.Subram@arraytest.com,,,,,,
,105,KRISTI.SUBRAM,Kristi,Subram,Kristi.Subram@arraytest.com,,,,,,
,105,KRISTINA.SUBRAM,Kristina,Subram,Kristina.Subram@arraytest.com,,,,,,
,105,KRISTOPHER.SUBRAM,Kristopher,Subram,Kristopher.Subram@arraytest.com,,,,,,
,105,LEVI.SUBRAM,Levi,Subram,Levi.Subram@arraytest.com,,,,,,
,105,LYDIA.SUBRAM,Lydia,Subram,Lydia.Subram@arraytest.com,,,,,,
,105,MANUEL.SUBRAM,Manuel,Subram,Manuel.Subram@arraytest.com,,,,,,
,105,MARCO.SUBRAM,Marco,Subram,Marco.Subram@arraytest.com,,,,,,
,105,MARIE.SUBRAM,Marie,Subram,Marie.Subram@arraytest.com,,,,,,
,105,MARTIN.SUBRAM,Martin,Subram,Martin.Subram@arraytest.com,,,,,,
,105,MAYRA.SUBRAM,Mayra,Subram,Mayra.Subram@arraytest.com,,,,,,
,105,MEAGAN.SUBRAM,Meagan,Subram,Meagan.Subram@arraytest.com,,,,,,
,105,MEREDITH.SUBRAM,Meredith,Subram,Meredith.Subram@arraytest.com,,,,,,
,105,MOLLY.SUBRAM,Molly,Subram,Molly.Subram@arraytest.com,,,,,,
,105,MONICA.SUBRAM,Monica,Subram,Monica.Subram@arraytest.com,,,,,,
,105,NANCY.SUBRAM,Nancy,Subram,Nancy.Subram@arraytest.com,,,,,,
,105,PAMELA.SUBRAM,Pamela,Subram,Pamela.Subram@arraytest.com,,,,,,
,105,PATRICIA.SUBRAM,Patricia,Subram,Patricia.Subram@arraytest.com,,,,,,
,105,PEDRO.SUBRAM,Pedro,Subram,Pedro.Subram@arraytest.com,,,,,,
,105,PRESTON.SUBRAM,Preston,Subram,Preston.Subram@arraytest.com,,,,,,
,105,RAYMOND.SUBRAM,Raymond,Subram,Raymond.Subram@arraytest.com,,,,,,
,105,REBEKAH.SUBRAM,Rebekah,Subram,Rebekah.Subram@arraytest.com,,,,,,
,105,REGINA.SUBRAM,Regina,Subram,Regina.Subram@arraytest.com,,,,,,
,105,RONALD.SUBRAM,Ronald,Subram,Ronald.Subram@arraytest.com,,,,,,
,105,ROSS.SUBRAM,Ross,Subram,Ross.Subram@arraytest.com,,,,,,
,105,ROY.SUBRAM,Roy,Subram,Roy.Subram@arraytest.com,,,,,,
,105,RUBEN.SUBRAM,Ruben,Subram,Ruben.Subram@arraytest.com,,,,,,
,105,SERGIO.SUBRAM,Sergio,Subram,Sergio.Subram@arraytest.com,,,,,,
,105,SHANE.SUBRAM,Shane,Subram,Shane.Subram@arraytest.com,,,,,,
,105,STANLEY.SUBRAM,Stanley,Subram,Stanley.Subram@arraytest.com,,,,,,
,105,STEFANIE.SUBRAM,Stefanie,Subram,Stefanie.Subram@arraytest.com,,,,,,
,105,TABITHA.SUBRAM,Tabitha,Subram,Tabitha.Subram@arraytest.com,,,,,,
,105,TERRANCE.SUBRAM,Terrance,Subram,Terrance.Subram@arraytest.com,,,,,,
,105,TINA.SUBRAM,Tina,Subram,Tina.Subram@arraytest.com,,,,,,
,105,TROY.SUBRAM,Troy,Subram,Troy.Subram@arraytest.com,,,,,,
,105,VERONICA.SUBRAM,Veronica,Subram,Veronica.Subram@arraytest.com,,,,,,
,105,VIRGINIA.SUBRAM,Virginia,Subram,Virginia.Subram@arraytest.com,,,,,,
,105,WHITNEY.SUBRAM,Whitney,Subram,Whitney.Subram@arraytest.com,,,,,,
,105,GARY.SUESS,Gary,Suess,Gary.Suess@arraytest.com,,,,,,
,105,RUTH.SUFFIN,Ruth,Suffin,Ruth.Suffin@arraytest.com,,,,,,
,105,CARLA.SULLIVAN,Carla,Sullivan,Carla.Sullivan@arraytest.com,,,,,,
,105,DOMINIC.SULLIVAN,Dominic,Sullivan,Dominic.Sullivan@arraytest.com,,,,,,
,105,ELIZABETH.SULLIVAN,Elizabeth,Sullivan,Elizabeth.Sullivan@arraytest.com,,,,,,
,105,HENRY.SULLIVAN,Henry,Sullivan,Henry.Sullivan@arraytest.com,,,,,,
,105,KAITLIN.SULLIVAN,Kaitlin,Sullivan,Kaitlin.Sullivan@arraytest.com,,,,,,
,105,MICHAEL.SULLIVAN,Michael,Sullivan,Michael.Sullivan@arraytest.com,,,,,,
,105,PHILLIP.SULLIVAN,Phillip,Sullivan,Phillip.Sullivan@arraytest.com,,,,,,
,105,ROY.SULLIVAN,Roy,Sullivan,Roy.Sullivan@arraytest.com,,,,,,
,105,RUTH.SULLIVAN,Ruth,Sullivan,Ruth.Sullivan@arraytest.com,,,,,,
,105,SUMMER.SULLIVAN,Summer,Sullivan,Summer.Sullivan@arraytest.com,,,,,,
,105,TONI.SULLIVAN,Toni,Sullivan,Toni.Sullivan@arraytest.com,,,,,,
,105,MARCIA.SULTAN,Marcia,Sultan,Marcia.Sultan@arraytest.com,,,,,,
,105,AIMEE.SUN,Aimee,Sun,Aimee.Sun@arraytest.com,,,,,,
,105,ROBERTO.GILL,Roberto,Gill,Roberto.Gill@arraytest.com,,,,,,
,105,ROBIN.GILL,Robin,Gill,Robin.Gill@arraytest.com,,,,,,
,105,ROBYN.GILL,Robyn,Gill,Robyn.Gill@arraytest.com,,,,,,
,105,ROSS.GILL,Ross,Gill,Ross.Gill@arraytest.com,,,,,,
,105,ROY.GILL,Roy,Gill,Roy.Gill@arraytest.com,,,,,,
,105,RUBEN.GILL,Ruben,Gill,Ruben.Gill@arraytest.com,,,,,,
,105,SHANNON.GILL,Shannon,Gill,Shannon.Gill@arraytest.com,,,,,,
,105,SHEILA.GILL,Sheila,Gill,Sheila.Gill@arraytest.com,,,,,,
,105,STACY.GILL,Stacy,Gill,Stacy.Gill@arraytest.com,,,,,,
,105,TABITHA.GILL,Tabitha,Gill,Tabitha.Gill@arraytest.com,,,,,,
,105,TANYA.GILL,Tanya,Gill,Tanya.Gill@arraytest.com,,,,,,
,105,TERESA.GILL,Teresa,Gill,Teresa.Gill@arraytest.com,,,,,,
,105,THEODORE.GILL,Theodore,Gill,Theodore.Gill@arraytest.com,,,,,,
,105,TYRONE.GILL,Tyrone,Gill,Tyrone.Gill@arraytest.com,,,,,,
,105,VICTOR.GILL,Victor,Gill,Victor.Gill@arraytest.com,,,,,,
,105,WALTER.GILL,Walter,Gill,Walter.Gill@arraytest.com,,,,,,
,105,WENDY.GILL,Wendy,Gill,Wendy.Gill@arraytest.com,,,,,,
,105,JANET.GILLIAT,Janet,Gilliat,Janet.Gilliat@arraytest.com,,,,,,
,105,MARY.GIMMI,Mary,Gimmi,Mary.Gimmi@arraytest.com,,,,,,
,105,DAVID.GIVENS,David,Givens,David.Givens@arraytest.com,,,,,,
,105,JEANIE.GLENN,Jeanie,Glenn,Jeanie.Glenn@arraytest.com,,,,,,
,105,DIANE.GLIMP,Diane,Glimp,Diane.Glimp@arraytest.com,,,,,,
,105,JAMES.GLYNN,James,Glynn,James.Glynn@arraytest.com,,,,,,
,105,SCOTT.GODE,Scott,Gode,Scott.Gode@arraytest.com,,,,,,
,105,ALEJANDRO.GOEL,Alejandro,Goel,Alejandro.Goel@arraytest.com,,,,,,
,105,ALICIA.GOEL,Alicia,Goel,Alicia.Goel@arraytest.com,,,,,,
,105,ALISHA.GOEL,Alisha,Goel,Alisha.Goel@arraytest.com,,,,,,
,105,ALISON.GOEL,Alison,Goel,Alison.Goel@arraytest.com,,,,,,
,105,ANDRES.GOEL,Andres,Goel,Andres.Goel@arraytest.com,,,,,,
,105,APRIL.GOEL,April,Goel,April.Goel@arraytest.com,,,,,,
,105,ARTURO.GOEL,Arturo,Goel,Arturo.Goel@arraytest.com,,,,,,
,105,ASHLEE.GOEL,Ashlee,Goel,Ashlee.Goel@arraytest.com,,,,,,
,105,BARBARA.GOEL,Barbara,Goel,Barbara.Goel@arraytest.com,,,,,,
,105,BETHANY.GOEL,Bethany,Goel,Bethany.Goel@arraytest.com,,,,,,
,105,BONNIE.GOEL,Bonnie,Goel,Bonnie.Goel@arraytest.com,,,,,,
,105,BRAD.GOEL,Brad,Goel,Brad.Goel@arraytest.com,,,,,,
,105,BRADLEY.GOEL,Bradley,Goel,Bradley.Goel@arraytest.com,,,,,,
,105,BRIDGET.GOEL,Bridget,Goel,Bridget.Goel@arraytest.com,,,,,,
,105,CALVIN.GOEL,Calvin,Goel,Calvin.Goel@arraytest.com,,,,,,
,105,CARL.GOEL,Carl,Goel,Carl.Goel@arraytest.com,,,,,,
,105,CARLY.GOEL,Carly,Goel,Carly.Goel@arraytest.com,,,,,,
,105,CASSIE.GOEL,Cassie,Goel,Cassie.Goel@arraytest.com,,,,,,
,105,CHAD.GOEL,Chad,Goel,Chad.Goel@arraytest.com,,,,,,
,105,CHRISTINE.GOEL,Christine,Goel,Christine.Goel@arraytest.com,,,,,,
,105,CHRISTY.GOEL,Christy,Goel,Christy.Goel@arraytest.com,,,,,,
,105,CLARENCE.GOEL,Clarence,Goel,Clarence.Goel@arraytest.com,,,,,,
,105,CLAYTON.GOEL,Clayton,Goel,Clayton.Goel@arraytest.com,,,,,,
,105,COLIN.GOEL,Colin,Goel,Colin.Goel@arraytest.com,,,,,,
,105,COLLEEN.GOEL,Colleen,Goel,Colleen.Goel@arraytest.com,,,,,,
,105,COREY.GOEL,Corey,Goel,Corey.Goel@arraytest.com,,,,,,
,105,CRISTINA.GOEL,Cristina,Goel,Cristina.Goel@arraytest.com,,,,,,
,105,DALE.GOEL,Dale,Goel,Dale.Goel@arraytest.com,,,,,,
,105,DARRELL.GOEL,Darrell,Goel,Darrell.Goel@arraytest.com,,,,,,
,105,DAWN.GOEL,Dawn,Goel,Dawn.Goel@arraytest.com,,,,,,
,105,DEBORAH.GOEL,Deborah,Goel,Deborah.Goel@arraytest.com,,,,,,
,105,DEREK.GOEL,Derek,Goel,Derek.Goel@arraytest.com,,,,,,
,105,DEVON.GOEL,Devon,Goel,Devon.Goel@arraytest.com,,,,,,
,105,DONNA.GOEL,Donna,Goel,Donna.Goel@arraytest.com,,,,,,
,105,DREW.GOEL,Drew,Goel,Drew.Goel@arraytest.com,,,,,,
,105,EDWIN.GOEL,Edwin,Goel,Edwin.Goel@arraytest.com,,,,,,
,105,FRANKLIN.GOEL,Franklin,Goel,Franklin.Goel@arraytest.com,,,,,,
,105,GILBERT.GOEL,Gilbert,Goel,Gilbert.Goel@arraytest.com,,,,,,
,105,GRANT.GOEL,Grant,Goel,Grant.Goel@arraytest.com,,,,,,
,105,GREGORY.GOEL,Gregory,Goel,Gregory.Goel@arraytest.com,,,,,,
,105,JAIME.GOEL,Jaime,Goel,Jaime.Goel@arraytest.com,,,,,,
,105,JENNY.GOEL,Jenny,Goel,Jenny.Goel@arraytest.com,,,,,,
,105,JODI.GOEL,Jodi,Goel,Jodi.Goel@arraytest.com,,,,,,
,105,JOHNNY.GOEL,Johnny,Goel,Johnny.Goel@arraytest.com,,,,,,
,105,JON.GOEL,Jon,Goel,Jon.Goel@arraytest.com,,,,,,
,105,JULIE.GOEL,Julie,Goel,Julie.Goel@arraytest.com,,,,,,
,105,KARA.GOEL,Kara,Goel,Kara.Goel@arraytest.com,,,,,,
,105,JACK.GREEN,Jack,Green,Jack.Green@arraytest.com,,,,,,
,105,JACKSON.GREEN,Jackson,Green,Jackson.Green@arraytest.com,,,,,,
,105,JAMES.GREEN,James,Green,James.Green@arraytest.com,,,,,,
,105,JAN.GREEN,Jan,Green,Jan.Green@arraytest.com,,,,,,
,105,JASON.GREEN,Jason,Green,Jason.Green@arraytest.com,,,,,,
,105,JENNA.GREEN,Jenna,Green,Jenna.Green@arraytest.com,,,,,,
,105,JENNIFER.GREEN,Jennifer,Green,Jennifer.Green@arraytest.com,,,,,,
,105,JEREMIAH.GREEN,Jeremiah,Green,Jeremiah.Green@arraytest.com,,,,,,
,105,JESSE.GREEN,Jesse,Green,Jesse.Green@arraytest.com,,,,,,
,105,JONATHAN.GREEN,Jonathan,Green,Jonathan.Green@arraytest.com,,,,,,
,105,JORDAN.GREEN,Jordan,Green,Jordan.Green@arraytest.com,,,,,,
,105,JOSE.GREEN,Jose,Green,Jose.Green@arraytest.com,,,,,,
,105,JULIA.GREEN,Julia,Green,Julia.Green@arraytest.com,,,,,,
,105,KAITLYN.GREEN,Kaitlyn,Green,Kaitlyn.Green@arraytest.com,,,,,,
,105,KATELYN.GREEN,Katelyn,Green,Katelyn.Green@arraytest.com,,,,,,
,105,KATHERINE.GREEN,Katherine,Green,Katherine.Green@arraytest.com,,,,,,
,105,KAYLEE.GREEN,Kaylee,Green,Kaylee.Green@arraytest.com,,,,,,
,105,KEVIN.GREEN,Kevin,Green,Kevin.Green@arraytest.com,,,,,,
,105,KYLE.GREEN,Kyle,Green,Kyle.Green@arraytest.com,,,,,,
,105,LUIS.GREEN,Luis,Green,Luis.Green@arraytest.com,,,,,,
,105,LUKE.GREEN,Luke,Green,Luke.Green@arraytest.com,,,,,,
,105,MACKENZIE.GREEN,Mackenzie,Green,Mackenzie.Green@arraytest.com,,,,,,
,105,MADELINE.GREEN,Madeline,Green,Madeline.Green@arraytest.com,,,,,,
,105,MARCUS.GREEN,Marcus,Green,Marcus.Green@arraytest.com,,,,,,
,105,MARY.GREEN,Mary,Green,Mary.Green@arraytest.com,,,,,,
,105,MASON.GREEN,Mason,Green,Mason.Green@arraytest.com,,,,,,
,105,MIGUEL.GREEN,Miguel,Green,Miguel.Green@arraytest.com,,,,,,
,105,MORGAN.GREEN,Morgan,Green,Morgan.Green@arraytest.com,,,,,,
,105,NATALIE.GREEN,Natalie,Green,Natalie.Green@arraytest.com,,,,,,
,105,NATHAN.GREEN,Nathan,Green,Nathan.Green@arraytest.com,,,,,,
,105,NOAH.GREEN,Noah,Green,Noah.Green@arraytest.com,,,,,,
,105,REBECCA.GREEN,Rebecca,Green,Rebecca.Green@arraytest.com,,,,,,
,105,RICHARD.GREEN,Richard,Green,Richard.Green@arraytest.com,,,,,,
,105,ROBERT.GREEN,Robert,Green,Robert.Green@arraytest.com,,,,,,
,105,SAMUEL.GREEN,Samuel,Green,Samuel.Green@arraytest.com,,,,,,
,105,SARA.GREEN,Sara,Green,Sara.Green@arraytest.com,,,,,,
,105,SAVANNAH.GREEN,Savannah,Green,Savannah.Green@arraytest.com,,,,,,
,105,SEAN.GREEN,Sean,Green,Sean.Green@arraytest.com,,,,,,
,105,SETH.GREEN,Seth,Green,Seth.Green@arraytest.com,,,,,,
,105,SIERRA.GREEN,Sierra,Green,Sierra.Green@arraytest.com,,,,,,
,105,SOPHIA.GREEN,Sophia,Green,Sophia.Green@arraytest.com,,,,,,
,105,STEPHANIE.GREEN,Stephanie,Green,Stephanie.Green@arraytest.com,,,,,,
,105,SYDNEY.GREEN,Sydney,Green,Sydney.Green@arraytest.com,,,,,,
,105,THOMAS.GREEN,Thomas,Green,Thomas.Green@arraytest.com,,,,,,
,105,TIMOTHY.GREEN,Timothy,Green,Timothy.Green@arraytest.com,,,,,,
,105,WYATT.GREEN,Wyatt,Green,Wyatt.Green@arraytest.com,,,,,,
,105,XAVIER.GREEN,Xavier,Green,Xavier.Green@arraytest.com,,,,,,
,105,JANE.GREER,Jane,Greer,Jane.Greer@arraytest.com,,,,,,
,105,AARON.GRIFFIN,Aaron,Griffin,Aaron.Griffin@arraytest.com,,,,,,
,105,ABIGAIL.GRIFFIN,Abigail,Griffin,Abigail.Griffin@arraytest.com,,,,,,
,105,ADAM.GRIFFIN,Adam,Griffin,Adam.Griffin@arraytest.com,,,,,,
,105,AIDAN.GRIFFIN,Aidan,Griffin,Aidan.Griffin@arraytest.com,,,,,,
,105,ALEXANDRA.GRIFFIN,Alexandra,Griffin,Alexandra.Griffin@arraytest.com,,,,,,
,105,ALEXANDRIA.GRIFFIN,Alexandria,Griffin,Alexandria.Griffin@arraytest.com,,,,,,
,105,ALEXIA.GRIFFIN,Alexia,Griffin,Alexia.Griffin@arraytest.com,,,,,,
,105,ALEXIS.GRIFFIN,Alexis,Griffin,Alexis.Griffin@arraytest.com,,,,,,
,105,AMANDA.GRIFFIN,Amanda,Griffin,Amanda.Griffin@arraytest.com,,,,,,
,105,ANA.GRIFFIN,Ana,Griffin,Ana.Griffin@arraytest.com,,,,,,
,105,ANGELA.GRIFFIN,Angela,Griffin,Angela.Griffin@arraytest.com,,,,,,
,105,ANGELICA.GRIFFIN,Angelica,Griffin,Angelica.Griffin@arraytest.com,,,,,,
,105,ANNA.GRIFFIN,Anna,Griffin,Anna.Griffin@arraytest.com,,,,,,
,105,ANTONIO.GRIFFIN,Antonio,Griffin,Antonio.Griffin@arraytest.com,,,,,,
,105,ASHLEY.GRIFFIN,Ashley,Griffin,Ashley.Griffin@arraytest.com,,,,,,
,105,AUSTIN.GRIFFIN,Austin,Griffin,Austin.Griffin@arraytest.com,,,,,,
,105,BENJAMIN.GRIFFIN,Benjamin,Griffin,Benjamin.Griffin@arraytest.com,,,,,,
,105,JESSE.HERNANDEZ,Jesse,Hernandez,Jesse.Hernandez@arraytest.com,,,,,,
,105,JESSIE.HERNANDEZ,Jessie,Hernandez,Jessie.Hernandez@arraytest.com,,,,,,
,105,JÉSUS.HERNANDEZ,Jésus,Hernandez,Jésus.Hernandez@arraytest.com,,,,,,
,105,JILL.HERNANDEZ,Jill,Hernandez,Jill.Hernandez@arraytest.com,,,,,,
,105,JIMMY.HERNANDEZ,Jimmy,Hernandez,Jimmy.Hernandez@arraytest.com,,,,,,
,105,JOAN.HERNANDEZ,Joan,Hernandez,Joan.Hernandez@arraytest.com,,,,,,
,105,JOANNA.HERNANDEZ,Joanna,Hernandez,Joanna.Hernandez@arraytest.com,,,,,,
,105,JOE.HERNANDEZ,Joe,Hernandez,Joe.Hernandez@arraytest.com,,,,,,
,105,JONATHAN.HERNANDEZ,Jonathan,Hernandez,Jonathan.Hernandez@arraytest.com,,,,,,
,105,JONATHON.HERNANDEZ,Jonathon,Hernandez,Jonathon.Hernandez@arraytest.com,,,,,,
,105,JORDAN.HERNANDEZ,Jordan,Hernandez,Jordan.Hernandez@arraytest.com,,,,,,
,105,JOSÉ.HERNANDEZ,José,Hernandez,José.Hernandez@arraytest.com,,,,,,
,105,JOY.HERNANDEZ,Joy,Hernandez,Joy.Hernandez@arraytest.com,,,,,,
,105,JULIA.HERNANDEZ,Julia,Hernandez,Julia.Hernandez@arraytest.com,,,,,,
,105,JULIO.HERNANDEZ,Julio,Hernandez,Julio.Hernandez@arraytest.com,,,,,,
,105,KAITLYN.HERNANDEZ,Kaitlyn,Hernandez,Kaitlyn.Hernandez@arraytest.com,,,,,,
,105,KARI.HERNANDEZ,Kari,Hernandez,Kari.Hernandez@arraytest.com,,,,,,
,105,KATELYN.HERNANDEZ,Katelyn,Hernandez,Katelyn.Hernandez@arraytest.com,,,,,,
,105,KATHERINE.HERNANDEZ,Katherine,Hernandez,Katherine.Hernandez@arraytest.com,,,,,,
,105,KATHLEEN.HERNANDEZ,Kathleen,Hernandez,Kathleen.Hernandez@arraytest.com,,,,,,
,105,KAYLEE.HERNANDEZ,Kaylee,Hernandez,Kaylee.Hernandez@arraytest.com,,,,,,
,105,KELLIE.HERNANDEZ,Kellie,Hernandez,Kellie.Hernandez@arraytest.com,,,,,,
,105,KEVIN.HERNANDEZ,Kevin,Hernandez,Kevin.Hernandez@arraytest.com,,,,,,
,105,KRISTA.HERNANDEZ,Krista,Hernandez,Krista.Hernandez@arraytest.com,,,,,,
,105,KRISTI.HERNANDEZ,Kristi,Hernandez,Kristi.Hernandez@arraytest.com,,,,,,
,105,KRISTINE.HERNANDEZ,Kristine,Hernandez,Kristine.Hernandez@arraytest.com,,,,,,
,105,KRISTY.HERNANDEZ,Kristy,Hernandez,Kristy.Hernandez@arraytest.com,,,,,,
,105,KYLE.HERNANDEZ,Kyle,Hernandez,Kyle.Hernandez@arraytest.com,,,,,,
,105,LARRY.HERNANDEZ,Larry,Hernandez,Larry.Hernandez@arraytest.com,,,,,,
,105,LAWRENCE.HERNANDEZ,Lawrence,Hernandez,Lawrence.Hernandez@arraytest.com,,,,,,
,105,LESLIE.HERNANDEZ,Leslie,Hernandez,Leslie.Hernandez@arraytest.com,,,,,,
,105,LINDA.HERNANDEZ,Linda,Hernandez,Linda.Hernandez@arraytest.com,,,,,,
,105,LOGAN.HERNANDEZ,Logan,Hernandez,Logan.Hernandez@arraytest.com,,,,,,
,105,LORI.HERNANDEZ,Lori,Hernandez,Lori.Hernandez@arraytest.com,,,,,,
,105,LUCAS.HERNANDEZ,Lucas,Hernandez,Lucas.Hernandez@arraytest.com,,,,,,
,105,LUIS.HERNANDEZ,Luis,Hernandez,Luis.Hernandez@arraytest.com,,,,,,
,105,LUKE.HERNANDEZ,Luke,Hernandez,Luke.Hernandez@arraytest.com,,,,,,
,105,MACKENZIE.HERNANDEZ,Mackenzie,Hernandez,Mackenzie.Hernandez@arraytest.com,,,,,,
,105,MADELINE.HERNANDEZ,Madeline,Hernandez,Madeline.Hernandez@arraytest.com,,,,,,
,105,MALLORY.HERNANDEZ,Mallory,Hernandez,Mallory.Hernandez@arraytest.com,,,,,,
,105,MARC.HERNANDEZ,Marc,Hernandez,Marc.Hernandez@arraytest.com,,,,,,
,105,MARCUS.HERNANDEZ,Marcus,Hernandez,Marcus.Hernandez@arraytest.com,,,,,,
,105,MARIA.HERNANDEZ,Maria,Hernandez,Maria.Hernandez@arraytest.com,,,,,,
,105,MARVIN.HERNANDEZ,Marvin,Hernandez,Marvin.Hernandez@arraytest.com,,,,,,
,105,MARY.HERNANDEZ,Mary,Hernandez,Mary.Hernandez@arraytest.com,,,,,,
,105,MASON.HERNANDEZ,Mason,Hernandez,Mason.Hernandez@arraytest.com,,,,,,
,105,MATHEW.HERNANDEZ,Mathew,Hernandez,Mathew.Hernandez@arraytest.com,,,,,,
,105,MAX.HERNANDEZ,Max,Hernandez,Max.Hernandez@arraytest.com,,,,,,
,105,MEGHAN.HERNANDEZ,Meghan,Hernandez,Meghan.Hernandez@arraytest.com,,,,,,
,105,MELINDA.HERNANDEZ,Melinda,Hernandez,Melinda.Hernandez@arraytest.com,,,,,,
,105,MELODY.HERNANDEZ,Melody,Hernandez,Melody.Hernandez@arraytest.com,,,,,,
,105,MEREDITH.HERNANDEZ,Meredith,Hernandez,Meredith.Hernandez@arraytest.com,,,,,,
,105,MICHEAL.HERNANDEZ,Micheal,Hernandez,Micheal.Hernandez@arraytest.com,,,,,,
,105,MICHELE.HERNANDEZ,Michele,Hernandez,Michele.Hernandez@arraytest.com,,,,,,
,105,MIGUEL.HERNANDEZ,Miguel,Hernandez,Miguel.Hernandez@arraytest.com,,,,,,
,105,MONIQUE.HERNANDEZ,Monique,Hernandez,Monique.Hernandez@arraytest.com,,,,,,
,105,SAVANNAH.PEREZ,Savannah,Perez,Savannah.Perez@arraytest.com,,,,,,
,105,SEAN.PEREZ,Sean,Perez,Sean.Perez@arraytest.com,,,,,,
,105,SETH.PEREZ,Seth,Perez,Seth.Perez@arraytest.com,,,,,,
,105,SIERRA.PEREZ,Sierra,Perez,Sierra.Perez@arraytest.com,,,,,,
,105,SOPHIA.PEREZ,Sophia,Perez,Sophia.Perez@arraytest.com,,,,,,
,105,STANLEY.PEREZ,Stanley,Perez,Stanley.Perez@arraytest.com,,,,,,
,105,STEFANIE.PEREZ,Stefanie,Perez,Stefanie.Perez@arraytest.com,,,,,,
,105,STEPHANIE.PEREZ,Stephanie,Perez,Stephanie.Perez@arraytest.com,,,,,,
,105,SUMMER.PEREZ,Summer,Perez,Summer.Perez@arraytest.com,,,,,,
,105,SYDNEY.PEREZ,Sydney,Perez,Sydney.Perez@arraytest.com,,,,,,
,105,TABITHA.PEREZ,Tabitha,Perez,Tabitha.Perez@arraytest.com,,,,,,
,105,TERRANCE.PEREZ,Terrance,Perez,Terrance.Perez@arraytest.com,,,,,,
,105,THOMAS.PEREZ,Thomas,Perez,Thomas.Perez@arraytest.com,,,,,,
,105,TIMOTHY.PEREZ,Timothy,Perez,Timothy.Perez@arraytest.com,,,,,,
,105,TINA.PEREZ,Tina,Perez,Tina.Perez@arraytest.com,,,,,,
,105,TONI.PEREZ,Toni,Perez,Toni.Perez@arraytest.com,,,,,,
,105,TROY.PEREZ,Troy,Perez,Troy.Perez@arraytest.com,,,,,,
,105,VERONICA.PEREZ,Veronica,Perez,Veronica.Perez@arraytest.com,,,,,,
,105,VIRGINIA.PEREZ,Virginia,Perez,Virginia.Perez@arraytest.com,,,,,,
,105,WHITNEY.PEREZ,Whitney,Perez,Whitney.Perez@arraytest.com,,,,,,
,105,WYATT.PEREZ,Wyatt,Perez,Wyatt.Perez@arraytest.com,,,,,,
,105,XAVIER.PEREZ,Xavier,Perez,Xavier.Perez@arraytest.com,,,,,,
,105,TINA.PERKO,Tina,Perko,Tina.Perko@arraytest.com,,,,,,
,105,AARON.PERRY,Aaron,Perry,Aaron.Perry@arraytest.com,,,,,,
,105,ABIGAIL.PERRY,Abigail,Perry,Abigail.Perry@arraytest.com,,,,,,
,105,ADAM.PERRY,Adam,Perry,Adam.Perry@arraytest.com,,,,,,
,105,AIDAN.PERRY,Aidan,Perry,Aidan.Perry@arraytest.com,,,,,,
,105,ALEXANDRA.PERRY,Alexandra,Perry,Alexandra.Perry@arraytest.com,,,,,,
,105,ALEXIA.PERRY,Alexia,Perry,Alexia.Perry@arraytest.com,,,,,,
,105,ALEXIS.PERRY,Alexis,Perry,Alexis.Perry@arraytest.com,,,,,,
,105,ALYSSA.PERRY,Alyssa,Perry,Alyssa.Perry@arraytest.com,,,,,,
,105,AMANDA.PERRY,Amanda,Perry,Amanda.Perry@arraytest.com,,,,,,
,105,ANA.PERRY,Ana,Perry,Ana.Perry@arraytest.com,,,,,,
,105,ANGELA.PERRY,Angela,Perry,Angela.Perry@arraytest.com,,,,,,
,105,ANGELICA.PERRY,Angelica,Perry,Angelica.Perry@arraytest.com,,,,,,
,105,ANNA.PERRY,Anna,Perry,Anna.Perry@arraytest.com,,,,,,
,105,ANTONIO.PERRY,Antonio,Perry,Antonio.Perry@arraytest.com,,,,,,
,105,ARTHUR.PERRY,Arthur,Perry,Arthur.Perry@arraytest.com,,,,,,
,105,ASHLEY.PERRY,Ashley,Perry,Ashley.Perry@arraytest.com,,,,,,
,105,AUSTIN.PERRY,Austin,Perry,Austin.Perry@arraytest.com,,,,,,
,105,BENJAMIN.PERRY,Benjamin,Perry,Benjamin.Perry@arraytest.com,,,,,,
,105,BLAKE.PERRY,Blake,Perry,Blake.Perry@arraytest.com,,,,,,
,105,BRANDON.PERRY,Brandon,Perry,Brandon.Perry@arraytest.com,,,,,,
,105,BRIANNA.PERRY,Brianna,Perry,Brianna.Perry@arraytest.com,,,,,,
,105,BRITTANY.PERRY,Brittany,Perry,Brittany.Perry@arraytest.com,,,,,,
,105,CALEB.PERRY,Caleb,Perry,Caleb.Perry@arraytest.com,,,,,,
,105,CAMERON.PERRY,Cameron,Perry,Cameron.Perry@arraytest.com,,,,,,
,105,CAROL.PERRY,Carol,Perry,Carol.Perry@arraytest.com,,,,,,
,105,CAROLINE.PERRY,Caroline,Perry,Caroline.Perry@arraytest.com,,,,,,
,105,CARSON.PERRY,Carson,Perry,Carson.Perry@arraytest.com,,,,,,
,105,CASSIDY.PERRY,Cassidy,Perry,Cassidy.Perry@arraytest.com,,,,,,
,105,CHLOE.PERRY,Chloe,Perry,Chloe.Perry@arraytest.com,,,,,,
,105,CHRISTIAN.PERRY,Christian,Perry,Christian.Perry@arraytest.com,,,,,,
,105,CONNOR.PERRY,Connor,Perry,Connor.Perry@arraytest.com,,,,,,
,105,DAKOTA.PERRY,Dakota,Perry,Dakota.Perry@arraytest.com,,,,,,
,105,DALTON.PERRY,Dalton,Perry,Dalton.Perry@arraytest.com,,,,,,
,105,DAVID.PERRY,David,Perry,David.Perry@arraytest.com,,,,,,
,105,DESTINY.PERRY,Destiny,Perry,Destiny.Perry@arraytest.com,,,,,,
,105,DEVIN.PERRY,Devin,Perry,Devin.Perry@arraytest.com,,,,,,
,105,DYLAN.PERRY,Dylan,Perry,Dylan.Perry@arraytest.com,,,,,,
,105,EDUARDO.PERRY,Eduardo,Perry,Eduardo.Perry@arraytest.com,,,,,,
,105,EDWARD.PERRY,Edward,Perry,Edward.Perry@arraytest.com,,,,,,
,105,ELIJAH.PERRY,Elijah,Perry,Elijah.Perry@arraytest.com,,,,,,
,105,ELIZABETH.PERRY,Elizabeth,Perry,Elizabeth.Perry@arraytest.com,,,,,,
,105,EMILY.PERRY,Emily,Perry,Emily.Perry@arraytest.com,,,,,,
,105,EMMA.PERRY,Emma,Perry,Emma.Perry@arraytest.com,,,,,,
,105,MARSHALL.LU,Marshall,Lu,Marshall.Lu@arraytest.com,,,,,,
,105,MARTHA.LU,Martha,Lu,Martha.Lu@arraytest.com,,,,,,
,105,MICAH.LU,Micah,Lu,Micah.Lu@arraytest.com,,,,,,
,105,OSCAR.LU,Oscar,Lu,Oscar.Lu@arraytest.com,,,,,,
,105,RAFAEL.LU,Rafael,Lu,Rafael.Lu@arraytest.com,,,,,,
,105,RAMON.LU,Ramon,Lu,Ramon.Lu@arraytest.com,,,,,,
,105,RANDY.LU,Randy,Lu,Randy.Lu@arraytest.com,,,,,,
,105,ROGER.LU,Roger,Lu,Roger.Lu@arraytest.com,,,,,,
,105,RONNIE.LU,Ronnie,Lu,Ronnie.Lu@arraytest.com,,,,,,
,105,ROSA.LU,Rosa,Lu,Rosa.Lu@arraytest.com,,,,,,
,105,SANDRA.LU,Sandra,Lu,Sandra.Lu@arraytest.com,,,,,,
,105,STACEY.LU,Stacey,Lu,Stacey.Lu@arraytest.com,,,,,,
,105,STEVE.LU,Steve,Lu,Steve.Lu@arraytest.com,,,,,,
,105,SUSAN.LU,Susan,Lu,Susan.Lu@arraytest.com,,,,,,
,105,SUZANNE.LU,Suzanne,Lu,Suzanne.Lu@arraytest.com,,,,,,
,105,TAMARA.LU,Tamara,Lu,Tamara.Lu@arraytest.com,,,,,,
,105,TIFFANY.LU,Tiffany,Lu,Tiffany.Lu@arraytest.com,,,,,,
,105,TODD.LU,Todd,Lu,Todd.Lu@arraytest.com,,,,,,
,105,TRISHA.LU,Trisha,Lu,Trisha.Lu@arraytest.com,,,,,,
,105,VALERIE.LU,Valerie,Lu,Valerie.Lu@arraytest.com,,,,,,
,105,VINCENT.LU,Vincent,Lu,Vincent.Lu@arraytest.com,,,,,,
,105,WARREN.LU,Warren,Lu,Warren.Lu@arraytest.com,,,,,,
,105,WESLEY.LU,Wesley,Lu,Wesley.Lu@arraytest.com,,,,,,
,105,WILLIE.LU,Willie,Lu,Willie.Lu@arraytest.com,,,,,,
,105,ANITA.LUCERNE,Anita,Lucerne,Anita.Lucerne@arraytest.com,,,,,,
,105,JOSE.LUGO,Jose,Lugo,Jose.Lugo@arraytest.com,,,,,,
,105,RICHARD.LUM,Richard,Lum,Richard.Lum@arraytest.com,,,,,,
,105,JUDY.LUNDAHL,Judy,Lundahl,Judy.Lundahl@arraytest.com,,,,,,
,105,SEAN.LUNT,Sean,Lunt,Sean.Lunt@arraytest.com,,,,,,
,105,ALEJANDRO.LUO,Alejandro,Luo,Alejandro.Luo@arraytest.com,,,,,,
,105,ALICIA.LUO,Alicia,Luo,Alicia.Luo@arraytest.com,,,,,,
,105,ALISHA.LUO,Alisha,Luo,Alisha.Luo@arraytest.com,,,,,,
,105,ALISON.LUO,Alison,Luo,Alison.Luo@arraytest.com,,,,,,
,105,ALVIN.LUO,Alvin,Luo,Alvin.Luo@arraytest.com,,,,,,
,105,ANDRES.LUO,Andres,Luo,Andres.Luo@arraytest.com,,,,,,
,105,APRIL.LUO,April,Luo,April.Luo@arraytest.com,,,,,,
,105,ARTURO.LUO,Arturo,Luo,Arturo.Luo@arraytest.com,,,,,,
,105,ASHLEE.LUO,Ashlee,Luo,Ashlee.Luo@arraytest.com,,,,,,
,105,BARBARA.LUO,Barbara,Luo,Barbara.Luo@arraytest.com,,,,,,
,105,BETHANY.LUO,Bethany,Luo,Bethany.Luo@arraytest.com,,,,,,
,105,BONNIE.LUO,Bonnie,Luo,Bonnie.Luo@arraytest.com,,,,,,
,105,BRADLEY.LUO,Bradley,Luo,Bradley.Luo@arraytest.com,,,,,,
,105,BRIDGET.LUO,Bridget,Luo,Bridget.Luo@arraytest.com,,,,,,
,105,CALVIN.LUO,Calvin,Luo,Calvin.Luo@arraytest.com,,,,,,
,105,CARL.LUO,Carl,Luo,Carl.Luo@arraytest.com,,,,,,
,105,CARLY.LUO,Carly,Luo,Carly.Luo@arraytest.com,,,,,,
,105,CASEY.LUO,Casey,Luo,Casey.Luo@arraytest.com,,,,,,
,105,CASSIE.LUO,Cassie,Luo,Cassie.Luo@arraytest.com,,,,,,
,105,CHAD.LUO,Chad,Luo,Chad.Luo@arraytest.com,,,,,,
,105,CHRISTINE.LUO,Christine,Luo,Christine.Luo@arraytest.com,,,,,,
,105,CHRISTY.LUO,Christy,Luo,Christy.Luo@arraytest.com,,,,,,
,105,CLARENCE.LUO,Clarence,Luo,Clarence.Luo@arraytest.com,,,,,,
,105,COLIN.LUO,Colin,Luo,Colin.Luo@arraytest.com,,,,,,
,105,COLLEEN.LUO,Colleen,Luo,Colleen.Luo@arraytest.com,,,,,,
,105,COREY.LUO,Corey,Luo,Corey.Luo@arraytest.com,,,,,,
,105,DALE.LUO,Dale,Luo,Dale.Luo@arraytest.com,,,,,,
,105,DAMIEN.LUO,Damien,Luo,Damien.Luo@arraytest.com,,,,,,
,105,DARRELL.LUO,Darrell,Luo,Darrell.Luo@arraytest.com,,,,,,
,105,DAWN.LUO,Dawn,Luo,Dawn.Luo@arraytest.com,,,,,,
,105,DEVON.LUO,Devon,Luo,Devon.Luo@arraytest.com,,,,,,
,105,DONNA.LUO,Donna,Luo,Donna.Luo@arraytest.com,,,,,,
,105,DREW.LUO,Drew,Luo,Drew.Luo@arraytest.com,,,,,,
,105,DUSTIN.LUO,Dustin,Luo,Dustin.Luo@arraytest.com,,,,,,
,105,EDWIN.LUO,Edwin,Luo,Edwin.Luo@arraytest.com,,,,,,
,105,FRANKLIN.LUO,Franklin,Luo,Franklin.Luo@arraytest.com,,,,,,
